<?xml version="1.0" encoding="utf-8"?>
<!-- Generator: Adobe Illustrator 18.1.1, SVG Export Plug-In . SVG Version: 6.00 Build 0)  -->
<svg version="1.1" id="Layer_1" xmlns="http://www.w3.org/2000/svg" xmlns:xlink="http://www.w3.org/1999/xlink" x="0px" y="0px"
	 viewBox="0 0 612 792" enable-background="new 0 0 612 792" xml:space="preserve">
<g id="McNxov_1_">
	<g>
		<path fill-rule="evenodd" clip-rule="evenodd" d="M371.5,70.5c-13.3-6.2-27.9-4.7-42-7.2c-13.8-2.4-31.4-4.7-45.3-1.8
			c-13.8,2.8-25.8,9-39,13.3c-14.6,4.8-27.8,13.4-42,19.1c-13.1,5.2-27.3,10.5-37,20.8c-11.4,12.1-24,23.2-33.6,36.9
			c-5.4,7.6-9.8,15.2-14.3,23.6c-3.1,5.9-7.2,10.5-10.8,16c-1.8,2.8-4,5.3-4.9,8.6c-0.4,1.7,0.7,7.6-1.2,8.5
			c-2.2,1,0.5,14.6,1.2,16.7c1.5,4.4,5.7,13.1,5,17.7c-0.4,2.6-2.2,1.5-1.8,4.2c0.5,3.6-0.6,5.2-1.8,8.3c-2.3,6.2-3.7,11.9-4.8,18.5
			c-1.3,7.6,2.1,15.1,5.5,21.7c2.1,4,8.1,11.4,6.9,16.2c-3.8,14.7-11.7,27-6.1,42.1c2.7,7.4,6.3,13.8,10.4,20.5
			c3.1,5.1,1.7,8.9,0.9,14.7c-1.1,8.5-1.6,16.5,2,24.5c2.4,5.4,10.2,12.2,9.1,18.3c-2.2,12.7,10.1,14.8,10.4,23.9
			c6.6-2.1,5.2,16.7,7.9,21.4c7.4,12.8-16.7,6.2-20.2,5.9c-21-1.7-43.6,9.9-57.8,24.8c-14.5,15.2-19.5,29.1-20.1,49.9
			c-0.5,21.1,5.4,43.4,18.4,60.3c26.7,34.8,86.9,45.7,111.8,3.4c2.5-4.3,3.5-8.8,7.3-3.2c2.8,4,5.5,8.2,8.2,12.3
			c5.1,7.6,11.3,13.1,18,19.3c15.6,14.7,30.2,30.3,46.2,44.5c0.8-6.3,6.8,2.9,8.4,4.8c-0.8,0.1-1.7,0.2-2.6,0.2
			c3.8,6.9,14.8,15.1,20.9,20.5c5.3,4.7,10.6,6.1,17.3,7.8c4.3,1.1,1.8,3.6,7.9,3.3c9.4-0.5,25.1,0.2,33.4-4.9
			c10-6.1,17.6-18,24.4-27.2c8.2-11,17.2-21.5,25.1-32.8c5.1-7.3,11-16.4,18.3-21.9c4.5-3.4,8.6-7.9,11.6-12.3
			c1.4-2.1,10.1-17.2,12.4-15.4c1.4,1.2-1.2,2.2,0.2,3.9c2.5,3,6.1,4.1,9.1,6.3c4.7,3.5,10.2,5.4,15.6,7.6
			c11.7,4.8,25.7,6.4,38.2,5.2c14.7-1.4,27.3-6.2,37.1-17.3c6.6-7.5,10-18.5,13.4-27.5c11.6-30.4,15.6-64.9-11.4-89.1
			c-13.1-11.7-25.9-20.3-43.8-22.2c-8.5-0.9-14.3,0.2-22.5,1.2c-1.3,0.2-3.8-12.3-4.1-13.7c-0.9-5,1.3-5.3,4-8.4
			c2.5-2.8,2.8-6.7,3.2-10.3c0.8-7.1,2.3-14.2-1.1-20.7c-4.3-8.3-1.9-12.3,1.2-20.7c2.8-7.4,2.6-14.4,7-21.2
			c1.5-2.3,15.7-18.1,9.7-19.4c-4.7-1,0.6-12.1,1.7-14.2c6.7-12.5,13.9-27.8,14.5-42.2c0.3-6.9,0.1-10.7,3.9-16.2
			c3.3-4.9,4.1-10.2,7.1-15.4c3.7-6.4,4.4-13.8,6.8-19.7c2.4-5.9-7.2-9.6-1.6-14.5c0.3-0.2,4-0.8,4.4-1.5c1.8-3.5,2.3-5.5,2.2-9.6
			c-0.4-16-6-29.9-14.1-43.4c-3.8-6.4-6.1-13.7-10.3-19.7c-3.1-4.4-7-8.6-9.7-13.2c-6.3-10.7-14-24.2-23.5-32.3
			c-10.8-9.2-17.9-20.9-31.1-27.2c-11.5-5.5-25-12.7-37.3-15.5C393.1,83.6,381.5,75.1,371.5,70.5z M398.1,253.4
			C398.3,252.6,399.8,252.5,398.1,253.4C398.1,253.4,398.4,253.3,398.1,253.4z M59.7,575.8C59.6,576.1,61,573.7,59.7,575.8
			C59.7,575.8,59.9,575.6,59.7,575.8z M436.8,313.6c-1.2,0.1-0.9-2-0.8-1.7C436.3,312.5,436.6,313,436.8,313.6z M127.2,237.6
			c-1,3-1.4,6.3-4,8.3c-0.8-1.5-3.2-17.6-1.6-18c0.9,0.2,1.6,0.8,2.1,1.6c-1.6-4.5-2-6-0.2-10.6c0.6-1.4,2.8-3.7,2.7-5
			c-0.1-4.1,1.7-10.4,4.5-13.5c1.8-2,4.4-2.7,5.3-5.6c2.3-7.9,5.6-13.2,10.2-20.3c4.6-6.9,5.5-11.9,12.1-17.7
			c12.2-10.6,21.1-24.9,34.1-33.7c5.8-3.9,9.5-10.3,15.1-14.7c2.3-1.8,7.3-6.6,9.9-3.3c1.6,2.1,2.1,1.7,4.2,0.4
			c-1.3,0.3-2.4,0-3.3-1c6.4-8.4,15-14.2,25.6-17c6.7-1.8,11.8-7.5,19.1-8.3c5.5-0.6,7.1-6.8,12.7-7.7c13.4-2.2,26.6-2.6,40.2-1.6
			c13.6,1.1,27.3,0.5,40.9,1.9c4.8,0.5,14.7,1.5,17.9,5.7c0.4,0.5-0.5,2.8,0.6,3.2c2.8,1,7.5,0.7,9.2,3.9c2.2,4.2,8.8,7,12.7,9.5
			c6.8,4.4,13.8,8.4,20.3,13.3c6.5,4.9,12.5,10.4,18.6,15.8c3.5,3.1,13.5,9.7,15.2,13.7c1.8,4.1,8.1,7.7,11.2,11.2
			c2.8,3.2,6.1,9.1,9.9,10.8c1.3-6.2-12.1-20.4-17-24.5c-1.6-1.3-4.4-5.7-6-6.1c-3.5-1.1-8.3-5.8-10.1-8.9c0.7,0,1.3-0.1,2-0.2
			c0-0.1-8.1-9.1-8.6-9.4c-4.7-2-15.9-8.4-18.3-12.8c5.7-1.8,17.8,6.1,22.9,8.6c7.3,3.6,12.4,7.8,18.1,13.7
			c11.2,11.7,20.8,23.9,29.7,37.6c8.6,13.1,14.5,26.9,21.1,41.2c4.2,9,8.7,17.5,10.7,27.3c1,4.8,5,14.1,1.5,18.1
			c-4.5-5.9-4.9-15.8-9.2-22.5c-0.7-1.2-7.6-10.3-7.7-10.2c-1,1.6,8,18.5,8.9,21.7c1.5,4.9,5.4,14.8,2.9,19.5
			c-3,5.6,1.3,4.3,0.5,10.5c-0.7,6.1-2.7,15-6.9,19.6c-3.4-8.5-1.3-23.4,1.4-32.1c1.5-5-5-25.1-9.7-27c-0.2,5,2.8,10.9,3.7,15.9
			c0.9,4.8-0.6,10.5,0.9,15c0.3-0.6,0.7-0.9,1.3-0.9c0.8,2.2-2,9.1-3.8,11.6c-3.2-5.1-1.2-15.7-5.3-20c-2.6-2.7-2.4-9.3-3.8-12.7
			c-2.1-5.2-4.8-10.1-6.8-15.3c-5.2-13.7-17.6-24.9-27.3-35.2c-13.7-14.6-29.6-28.6-48.3-36.4c-20.4-8.5-40.6-13.7-62-18.8
			c-38.2-9.2-81,8.4-109.9,33.4c-2.2,1.9-21.3,14.9-20.4,16.4c0.7,1.2-13.1,13.6-14.6,15.4c-3.4,4.1-5.1,10.2-9.1,13.6
			c-3.7,3.2-7.6,6-11.4,9.1c-7.2,5.8-12.3,12.8-17.7,20.2c0.9-0.9,1.7-0.8,2.1,0.4c-1,3-3.8,0.3-4.8,3.5c-0.9,3-3.5,5.4-4.8,8.3
			c-2.3,4.9-10.5,18-15.6,19.8c0.1-8.1,7.9-17.6,5.1-25.8c0,0.1-2.1,4-1.9,2.5c0.4-3.1,1.4-1.8,0.5-5.4c-1,1-6.6,11-8.8,8.3
			c-2-2.5,7.6-11.5,8.2-14.7c-0.9,0.2-1.8,0.2-2.7,0.1c-3.3-3.9,14.4-32.5,16.8-36.4c5-7.8,10.1-14.8,16.1-21.9
			c8.2-9.7,11.8-13.5,24.3-16c4-0.8,2.4-4.8-0.7-4c-3.9,1.1-5.6,3.7-10,2.7c1.8-6.9,10.5-11.8,15.6-16c6.8-5.6,13.7-11.1,21-15.9
			c14.9-9.8,31.8-22.5,48.8-28.2c9.2-3.1,19.3-5.2,29-6.2c6.1-0.6,7.3-3.1,12.5-5.2c3.3-1.4,7.6-0.5,11.1-1.4
			c5.4-1.3,9.9-3.3,15.7-3.2c2.4,0,7.6,2.2,9.8,1.3c5.7-2.4,14.7,8.8,21.5,7.9c-3.8-6-12.2-6.9-18.1-9.6c-8.7-4-19.7-2.3-28.9-0.8
			c-9.2,1.5-17.7,5.2-27,6.3c-5.4,0.7-22.4,8.4-26.6,6c1.4-0.7,2.4-1.7,3-3.2c-3.5,0.2-16,13-18.7,10.7c-0.5-0.4,0.8-3.4-0.3-3.5
			c-1.7-0.1-10.3,6.8-12.8,7.8c-4,1.6-7.4,4.1-11.2,6c-9.2,4.4-19.1,11.9-26.4,18.9c-11.7,11.1-23.8,22.3-36.4,32.4
			c-2.7,2.2-9.4,6.7-10.9,9.4c-0.7,1.3,1.7,3.7,1.2,5.5c-1.7,5.7-12.3,10.1-12.4,16.7c-0.1,5-4.5,7.6-6.8,11.5
			c-1.4,2.4,3.1,4.9,1.8,7.6c-2.4,4.8-6.9,14.9-10.3,18.7c-2.6-3.6-2.6-8.1-5.4-11.4c0,1.9,4.9,16.1,1.5,16.7
			c-1.3,0.2-3.9-4.1-4.5-4.9c1.1,2.2,5.9,9.3,3.5,10.6C127,239.2,127.1,238.4,127.2,237.6C126.7,239.4,127.2,238,127.2,237.6z
			 M396,245.1c2.7,1.7,1.7,7.7-1.7,5.5c-2-1.3-5.9-5.8-8.7-2.6c-2.6,3-21.1-4.8-24.2-7.4c3.5-0.6,19-14.1,21.3-10.3
			C385.5,235.2,389.2,245.1,396,245.1c-0.2-0.5-0.4-1-0.6-1.4C395.9,243.5,396.2,244,396,245.1C398,246.4,395.8,244.6,396,245.1z
			 M56.7,571.9c-5.7-5.3-2.1-22.3-1.7-29.1c0.5-9.3,7.1-19,13-25.7c7.3-8.3,15.1-14.4,24.7-19.8c5.5-3.2,17.9-9.8,24.2-6.6
			c-1.9,2.1-8.6,4.1-11.4,5.4c-5.9,2.8-12.5,4-18.1,7.3c-5.6,3.3-19.2,12.4-18.9,19.7c6.2-2.7,11.4-11.8,17.5-15.6
			c3.7-2.4,6.6-3.5,10.8-4.5c3.5-0.8,7.7-6.1,10.3-6.2c4.5-0.1,8.8-4.9,13.5-3.7c2.5,0.6,9.9-0.9,13-0.7c3.3,0.2,1.1,8.1-1.6,8.2
			c-21.9,0.9-39,5.6-54.5,21.8c-14.9,15.6-14.4,30.8-17.4,50.9c-2.2-4-1.1-11.2-1.1-15.6C55.4,558.1,57.6,569.7,56.7,571.9z
			 M155.6,337.1c-3.5-0.8-4.2,7.5-5.2,9.4c-3.8,7.4-6,15.5-11.4,22.2c-1.9-3.3-2.3-9.1-6.1-10.9c-1.3-0.6-0.2,2.1-2.3,1.2
			c-3.5-1.4,1.7-21.3,2.5-24.2c1.8-6.4,7.3-15.5,7-21.7c0-1,3.5-0.5,2.9-3.5c0.2,0.8-0.1-3-0.1-2.9c0.3-1.1,3.8,0.8,2.4-2
			c-0.3-0.6-0.2-5.9,1.5-5.7c2.2,0.3,3.3,3.7,3-1.4c-0.2-3.6,2.1-6.4,4.4-10.3c2-3.3,3.6-7.7,6.7-10.1c2.2-1.6,1.8-4.3,3.8-6.1
			c1.3-0.7,2.7-1.4,4-2.1c2.7-4,5.1-9.8,7.7-14.2c2.2-3.6,3.6-7.3,5.6-10.9c1.9-3.4,8.9-16,1-12c-0.6-7.8,20.2-20.7,26.3-24.7
			c6.9-4.5,24.6-19,33-17.4c-0.9,3-5.9,4.2-5.7,6.5c0,0-7.5,7.5-8.6,8.4c-5.8,5.2-11.3,12.1-16.5,16.9c-1,0.9-5.6,5.7-5.6,6.6
			c-0.2,4.6,8.3-5.6,8.5-5.8c6.9-6.2,15.6-14.6,23.5-19.3c-2.7,13.6-16.4,23.3-23.5,33.6c-3.4,5,1.3,6.6-0.8,12.5
			c-2.8,7.5-6.9,11.5-12.2,17.1c5.8,2.7-1.8,13.5-4.2,18.7c-3.6,7.8-7.1,21.2-12.5,27.5c-1-1.5-0.8-2.5-1.2-4.2
			c-3.9,6.7-1.5,15.3-7.3,21.5c-3.2,3.4-4.3,10.1-6,14.3c-2,5.1-4.8,9.9-7,15c-3.7,8.7-6.6,18.3-10.7,26.5c-3.2,6.2-4,17.7-9.5,22.2
			c-3.4-16.3,14.4-34.8,8.7-50.4c-1-0.6-1.9-0.4-2.5,0.5c0.1,0,0.1,0,0.2,0c-2.6,0.5,1.3-4.3,3-4.3c1.5-2.3,4-2.3,5.1-4.5
			c3-6.2,4.2-11.5,6.6-17.7c4.2-10.6,12.5-19.6,15.4-30.9c-4.2,1.8-6.5,10.1-9.4,13.9c-0.9,1.2-6.5,2.5-4.1,4.5
			c-0.2-0.2,0.8,6.6-0.6,6.1c-1.3-0.4-3.5,3.2-3.4,3.7c-0.3-1.2,1.5-2.6-0.7-3.2C160.8,326.3,154.8,336.9,155.6,337.1z M463.8,252.4
			c-3.6,0.9-15.4-21.8-17.2-24.7c-4.8-8-14.4-16.2-21.2-21.8c-19.6-15.9-41.9-30.5-66.7-37.9c-16.6-5-32.5-7-49.5-9.5
			c-13.9-2-29.6-2-42.2,3.5c-5.5,2.4-10.5,5.7-16.2,7.9c-5.4,2.1-0.7,0.9-4.5,3.5c-2,1.4-4,0-5.9,2.2c-2.5,2.9-9.4,4.6-13,6.4
			c-4.4,2.1-11.8,6.9-16.3,7.7c-1.2-11.5,18.3-17,22.4-23.7c3-4.8,11.4-9.7,16.2-12.4c8.5-4.8,15.5-11.5,24.6-15.2
			c17.5-7.3,38.2-13.9,57.3-11.7c13.9,1.6,29.7,6.5,42.6,11.9c16.8,7,34.7,11.9,50.4,21.3c13,7.8,22.6,20.2,34.1,30.3
			c11.9,10.4,21.5,23.8,25.6,39.5c1.2,4.5,15.9,50.1,8.4,51.9c-2.1,0.5-12.4-24.2-16.6-26.3c2.6,12.3,17.4,25.8,13.5,39.6
			c-5.8-2.8-9.9-17.5-13.3-23.2c-2.4-4-9.6-14.1-8.4-18.2C465.1,250.2,466.8,251.6,463.8,252.4z M414.8,630.4
			c-4.3,5.2-9.3,9.8-13.9,14.7c-9.2,10-15.9,21.8-24.1,32.6c-14.2,18.9-29.8,49-57.8,45.6c-16.1-1.9-23.8-3.9-35.5-16
			c-8.6-8.9-17.4-17.1-26.6-25.3c-9.9-8.8-19.4-17.8-28.9-27c-9.1-8.8-20-16-27.9-26c-9-11.4-16-23.1-19.1-37.2
			c-2.5-11.4-4.7-22.9-7.6-34.2c-3.8-15.1-7.2-30.4-11.5-45.4c-3.6-12.5-4.9-20.2-2.6-32.9c2.4-13.2,4.3-26,5.1-39.5
			c0.2-4-3-2.7-2.9-5.7c0.3-5.3,0.4-10.8,0.9-16.1c0.4-4,4.9-13.3,1.7-16.5c-1.7-1.7-2-7.3-1.2-9.5c1.3-3.3,9.8-9.5,14.3-10.1
			c-2.2,4.9-12.5,9.4-9.6,15.3c6-4.7,8.2-15.3,15-19c4.2-2.3,17.2-6.3,20.8-1.9c-3.4,1.9-7.2-0.6-10.8,0.3c-2.4,0.6-0.5,5-3.8,4
			c-2.4-0.8-10.3,6.6-9,9.9c0.8,2-1.9,6.7,2.7,5.7c3.5-0.7,4.6-4.9,7-7c7-6.1,13.6-6.4,22.3-4.5c5.5,1.2,11.1,0.3,16.6,1.5
			c4.3,0.9,7,4.2,10.9,5.9c1.6,0.7,5,0.5,6.2,1.3c1.7,1.2,0.6,4.2,2.4,5.4c1,0.7,5.9-1.4,6.1-0.1c0.4,2.2-1.4,4.4-1.5,6.6
			c0,5.1,5.5-4.7,5.7-4.9c1.2,3-3.5,11,2.4,6.8c3-2.1,8.5-2.4,10.2,1.7c1.3,3.1,1.8,10.5,6.7,4.5c2-2.5,2.3-6,3.8-8.8
			c1.6,2.6,4.4,5.1,6.5,7.4c2.5-3.6-1.2-9.3,1.9-13.1c2.4-2.9-2.8-4-4.4-6.1c-3.2-4.2-1.7-0.3-5.6-1.9c-2.3-1,1.4-3.1,0-4.3
			c-2.2-1.7-2.3,3.3-4,1.2c-2.9-3.6-7.1-5.2-11.6-5.7c-3-0.3-4.2,1.6-6.3-1.8c-0.9-1.4-6.5-3.4-7.7-3.1c-2.7,0.5-17.4,0.5-19.4-2.6
			c-0.6-0.9-9.6,1.1-11,1c-4.4-0.2-6.7-2.5-9.2-4.2c-1.6-1.1-8.9-0.2-10.7,0c-4.1,0.6-7.8-0.8-11.7,0.1c-6.9,1.5-12.7,7.4-20,7.4
			c0.3-7.6,6.3-20.3,12.6-24c8-4.7,17.9-11.9,22.8-19.8c-2.7-1.6-10.3,6.9-13.3,7.6c1.6-5,8.4-7.2,9.9-12.6
			c-3.9,0.4-7.4,4.7-10.5,7.1c-0.8-0.9,1-1.6,0.9-2.9c-1.3,0.3-1.2,0.6-2.5,1.7c0.3-2.7,1.1-7.3,4-8.5c1.9-0.7,4.1,0.3,5-2
			c1.7-4.1,11.6-8.9,11-13.3c-1.9,1.7-5.8,4.6-8.3,4.7c-0.1-3.9,3.9-6.4,6.6-8.8c2.5-2.1,11.4-7.1,12.4-9.8c1.6-4.2-3.4-1-4.3,0.2
			c-2.6,3.1-9.1,7.8-13.2,8.1c0-8.1,14.3-13.9,19.8-18.5c1.8-1.5,10.4-1.5,13.1-2.2c4.7-1.1,9.3-2.8,13.8-4.6
			c6.9-2.7,16.3-6.7,23.6-10.8c7.6-4.2,21.5-7.9,27-14.6c-10.2,0-23.7,9.8-33.6,14.5c-7.1,3.4-14.4,6.5-21.6,9.6
			c-4.1,1.8-9.3,5.8-14.1,5.1c0.5-0.6,1-1.2,1.6-1.7c-3.4-0.3-9.4,0.9-12.1,3.1c-2.4,1.9-9,6.2-11.9,5.9c1.9-2.9,10.9-6.6,14.3-9.1
			c4.4-3.2,8.6-7.9,13.4-10.3c4.2-2.2,10.5-2,15.2-2.9c6.2-1.1,10.8-5.5,15.5-9.4c2.2-1.8,7.4-9.2,9.8-10c3.9-1.4,6.9,2.6,10.9,2.3
			c2.3-0.2,26.6-6.1,26.6-2.4c0,1.6-8,3-9.3,4c1.1-0.2,21.5-3.3,16.8-6.4c-2.7,2.6-3.1,2.2-6.6,1.8c3-1.3,8.1-1.2,10.3-3.9
			c2-2.6,3.8,0.9,6.3,0.8c1.9-0.1,19.1-0.6,18.4,0.5c0.7-1.3-2.3-2.3-2.2-3c2-8.6,29.8,4.6,33.7,6.7c2.1,1.1,7.2,8.2,8.7,5.4
			c1.8-3.2,1-2.6-1.9-4.7c2.8-3.2,6.1,4.4,6.8,5.7c0.1,0.2,1.1,9.4,1.4,9.2c2.6-1.6,9.6,0.7,11.7,4.5c1.5,2.6,1.2,5.4-0.1,7.9
			c-1.2,2.2,2.8,3.7,3.9,4.9c2.9,3.2,6.7,9.8,6.9,14.4c0.1,3,2.8,4.7,3.2,8c0.2,2.2-1.1,6.3,0.7,7.8c0.5-0.8,0.3-5.5,2-4.8
			c2.2,0.9,1,2.7,0.6,4.1c-0.8,2.6-3.7,4.5-3.1,7.4c0.1,0.5,1.4,2.8,2.2,1.2c0.7-1.3,1.8-8.7,4-9c1.7-0.2,3.7,3,3.2,4.5
			c-1.6,5-0.4,7.4-0.9,12.8c0.6-1,1.3-1.8,2.3-2.5c1.9,0.2,3.4,5.4,4.3,6.7c-1.3,0.2-4.4-0.7-4.9,1c-0.6,2,6.1,8.6,7.3,10.2
			c2.4,3.4,3.1,7.4,5.4,10.9c3.3,5.1,4.8,13.5,6.3,19.3c1.1,4.3,0.7,8.9,2.2,13.2c0.5,1.5-0.6,20.2-1,20c-1-0.5-0.4-8.3-4-4.9
			c-2.4,2.3-2.1,7.4-1.5,10.3c0.7,3.2-0.6,8.2,0.1,12.2c0.5,3.3,0.2,7.7,3,9.9c6.8,5.6,4.2,17.6,6.4,24.8
			c3.2,10.6,0.6,27.1-1.5,37.8c-4,20.7-6.6,42.5-11.6,62.9c-2.4,9.8-0.7,21.5-3.6,30.9c-2.8,8.9-6.2,15.8-12,23.1
			C421.3,620.5,418.6,625.7,414.8,630.4z M118.9,508.4c2.2,0.2,14.5-0.7,13.4,3.4c-0.5,1.9,4.7,5.7,5.7,6.8c5.8,5.9,12.6,6.3,19.4,2
			c2.2,5,1.2,10.2,3.9,15.2c2.5,4.6,1.8,10.9,3.1,15.8c3.5,12.4,5.5,23.7,7.5,36.5c4,25.5-37.2,36.3-55.8,32.2
			c-32.1-7-46-33.6-48-63.8c-0.4-6.7,1.4-14.4,5.6-19.6c2.3-2.9,4.6-2.7,6.9-4.9c2.4-2.3,3.4-5.7,5.8-8.1
			C95.8,514.9,106.1,509.6,118.9,508.4C122.9,508.7,116.8,508.6,118.9,508.4z M324.1,197.8c-3.4-0.4-9.4-2.3-12.6-0.8
			c-4.2,2-2.1,3.1-7.3,2.7c-1-0.1-5.2-3-6.5-1.3c-1.9,2.7-6.6,2.4-9.4,3c-6.1,1.3-13.1,3-18.8,5.4c-1.8,0.7-13.3,2.2-13.6,2.7
			c-1.3,2.1,4.9,6.5,4,7.4c-3.2,2.9-5.9,3.6-9,5.9c-4.3,3.1-16.4,7.2-11.2-1.9c2.8-5,6.3-9.8,9.8-14.4c3.1-4,9.1-8,9.8-13.4
			c0.7-5.3,12-10.2,13.9-15.8c-3.3,1.4-12.6,14.1-15.7,13.4c1.5-5.4,4.7-12.5,10.4-14.9c6.4-2.7,17.3-2.7,22.5-6.7
			c-1.7-0.7-3.2-0.2-4.7-1.4c5.3-6.1,17.9-3.9,24.6-4.4c11.2-0.8,23.8,1.8,34.5,4.9c21.2,6.1,42,14.8,59.4,28.8
			c16.7,13.4,32.7,25.9,44.9,44c6,9,12.2,17.5,17.5,26.9c3.2,5.8,9.1,13,10.3,19.6c-0.8-0.2-1.6-0.4-2.4-0.4
			c0.9,6.2,7.3,11.3,8.8,18c1.4,6.1,5.6,15.5,3.5,21.8c-0.4,1.3-4.8,3.4-3.7,4.7c1.5,2,2.6,1.5,3.8,4c1.5,3.3-7.5,13.7-9.8,15.5
			c-2-4.3-2-9.4-3.5-14c-1.6,0.5-2.8,1.7-3.5,3.3c-1.5-9.7-2.5-19.1-6.9-28c-2.4-5-4.4-10.2-6.5-15.4c-1.3-3.2-3.2-0.2-5.2-1.1
			c-6-2.8-10-17.3-13.3-22.7c-3.4-5.6-9.7-12.2-12-18.2c-2.6-6.9-10.6-15.5-15.8-20.6c-3.9-3.8-8.3-15.3-14.2-15.5
			c-4-0.1-8.3-4.6-11.3-6.9c-1.6-1.3,0.8-3.4-2-3.4c-5.4,0-8.4-5.8-12.8-5.7c0.5,0.8,1,1.5,1.7,2.1c-5.6,4.2-16.4-5-22.5-4.6
			C340.5,200.7,332.7,196.6,324.1,197.8C320.6,197.4,326.5,197.5,324.1,197.8z M486.6,617.4c-6.2-0.5-43.6-8.9-43.7-16.6
			c-0.1-15.1,4.4-29.9,5.7-44.8c0.7-8.2,2.4-16.7,4.1-24.8c1.4-6.3,1.8-13.9,8.4-5.9c3.9,4.7,9.8-5.2,11.2-7.2
			c3.5-4.9-2-11.6,1.7-15.7c3-3.3,13.1-0.5,16.5,0.7c7.3,2.7,15,4.8,21.1,10c13.9,11.7,21.5,20.9,23.6,39.4
			C539,586.7,520.5,612.2,486.6,617.4C480.4,616.9,489.4,617,486.6,617.4z M548,577.3c0.4-5.4,0.4-47.2-7.8-46
			c2.9-0.4,5.9,39.2,5.5,42.9c-1.5,15.2-6.1,28.4-14.7,41.1c-7.2,10.6-23.4,15.8-35.6,17.3c-6.8,0.9-31.5,0.9-33.2-6.8
			c0.3,1.3-4.7-2.1-4.3-2c-6-1.9-9.3-2.9-14-7c-3.4-2.9-7.3-4.8-5-9.3c1.4-2.7,4-0.1,5.4,1.4c-6.5,3.3,10.5,11.5,13.1,12.8
			c5.9,2.8,11.4,5.8,17.5,4.7c18.7-3.2,40.5-6.6,53-23.1c21.8-28.6,15.9-73.4-12-94.5c-8.2-6.2-17.4-9.7-27.3-12.4
			c-1.6-0.4-17.3-1.8-17.1-3.8c1.5-12.8,38.2-0.3,44.1,3.3c14.6,9.1,26.5,20.2,33.7,36.1C551.5,537.3,555.7,577.9,548,577.3
			C548.2,574.9,548.2,577.3,548,577.3z M122,639.5c-15.8-0.1-45.1-10.1-48.6-28.6c5.8,2.4,13.8,7.5,19.2,10.9
			c5.6,3.4,14.7,5.2,21,6.3c4.6,0.8,14,0.9,18.9,0.4c8.1-0.9,15.9-5.8,23.6-6.7C152.7,635.9,133.5,638.6,122,639.5
			C115.8,639.5,124.2,639.3,122,639.5z M174.1,240.4c-3.1,7.2-0.6,7.6-6.4,14.5c-4.3,5.1-8.5,10.6-12.9,15.9
			c-6,7.3-10.9,16.3-15.6,24.4c-1.9,3.3-5.4,15.9-10.2,8.7c-2.8-4.3-0.2-13.6,5.5-9.3c3.5,2.6,10.4-14.7,12.2-17.5
			c4.4-6.8,10.6-12.7,14.8-19.8C165,251.8,168.5,244.3,174.1,240.4C173.3,242.4,173.8,240.7,174.1,240.4z M459.4,493.3
			c-0.2-1.8-1.8-7.5-0.4-9.2c1.1-0.5,2.3-1,3.4-1.4c1.5-2.1-1.8-5.4-0.2-7.8c3.2,2.4,3.8,10.5,2.3,13.3c-3.6,6.9,1.7,11.4,2.3,17.6
			c0.4,4.1-2.3,20.6-7.8,10.4C455.1,509.1,457.8,501.2,459.4,493.3C459.1,490.4,459.2,494,459.4,493.3z M175.8,610.7
			c-3.4,9.7-13.4,24.4-25.4,24c2-9.5,16.2-24.7,24.4-29.5C175.5,606.9,175.9,608.8,175.8,610.7C175.2,612.3,175.6,609.2,175.8,610.7
			z M91.1,617.3c-6.1-1.9-11.2-5.6-15.6-10.3c-3.9-4.1-3.8-8-6-12.7c-1.5-3.1-2.7,1.2-4.1-5.2c-0.7-3.6-2-8.8-0.6-12.3
			c3.1,4.1,0.4,11.3,3.3,14.9c1.5-1.5,4.9,5.8,5.6,6.8C75.6,601.3,91.3,617.2,91.1,617.3C87.9,616.4,91.2,617.2,91.1,617.3z
			 M156.5,515c0.9,4-15,2.3-11.2-3.9C151.3,501.3,154.4,507.7,156.5,515C156.7,516,155.8,512.3,156.5,515z M475.4,622.9
			c-8.3,0.1-23.4-4.1-28-12c4.7,0.3,10.7,4.7,15.4,6.3c4.1,1.3,12.5,2.4,15.5,5.3C477.5,623.1,476.5,623.3,475.4,622.9
			C469.9,623,476.2,622.9,475.4,622.9z M466.9,437.6c-0.4,5.4,0.4,14.7-3.8,18.9c-2.2-4.2-1-22.2,2.1-25.7
			C466,431.6,467,437.6,466.9,437.6C466.6,441.5,466.8,437.6,466.9,437.6z M480.7,364.2c0,3.7-8.8,22-7.6,10.8
			c0.5-4.6,5.3-14.2,8.9-16.9C482.7,360,481.3,362.3,480.7,364.2C480.7,366.5,480.9,363.4,480.7,364.2z M134.5,250.1
			c-1,2.3-6.5,14.7-8.8,14.4c-4.8-0.5,5-15.5,7.5-17.3C133.3,247.5,133.7,249.8,134.5,250.1C133.6,251.9,134.3,250,134.5,250.1z
			 M122.3,360.2c0.8-1.4-3.9-12.9,3.5-11.4C126.7,349,127.9,374.7,122.3,360.2C123.2,358.6,122.7,361.3,122.3,360.2z M132.6,271.9
			c0.4-3.4,1.4-6.9,2.4-9.8c0.8-2.6,5.2-14.6,7-15.9c1.6-1.2,2.3,3.3,1.9,4c-0.4,0.8-1.1,1.1-2.1,0.9c-1.2,1.2-2.3,5.7-2.8,7.5
			C138.1,261.8,135.4,267.4,132.6,271.9C132.7,270.6,133.7,270.2,132.6,271.9z M151.6,464.4c0.2,2.9,1.4,6.5-0.5,9
			c-0.6-2.3-5.7-15.4-3.7-16.8C151.4,453.6,151.5,464.4,151.6,464.4C151.7,466.3,151.7,464.3,151.6,464.4z M130.9,360.4
			c1.3,1.5,8.3,9.4,6.3,11.5C136.1,373.1,125.4,366.4,130.9,360.4C131.6,361.2,130,361.4,130.9,360.4z M341.3,237.7
			c-2.5,0.8-7.7,3.1-10.2,2.2c2.6-3.1,6-5.2,10-6C347.6,232.4,342.4,239.9,341.3,237.7C340.2,238,341.4,237.9,341.3,237.7z
			 M455.8,426.9c0.2,2.8-0.8,9.9,2.2,11.7c1.4,0.8,1.4,5.2,0.5,6.3C457.7,445.7,451.1,426.9,455.8,426.9
			C456,429.5,455.5,426.9,455.8,426.9z M128.2,337.3c2.7-0.9-0.4,8-2,9.3C125,344.8,124.6,336.6,128.2,337.3
			C129.6,336.9,126.7,337,128.2,337.3z M500.4,314.3c-0.4,2.9-0.2,5.2-2.4,7.3c-4-4-0.8-6.3,1.8-9.8
			C500.3,312.6,500.5,313.4,500.4,314.3C500.1,316,500.4,313.8,500.4,314.3z M164.3,385.7c8.8-10,3.1,3.5,0.5,1.7
			C164.6,386.8,164.5,386.3,164.3,385.7C165.3,384.6,164.6,386.6,164.3,385.7z M288.8,242.5c-2.6,0.7-6,2.5-8.4,0.7
			c1.8-2.1,8.8-2.4,10.7-0.9C290.5,242.7,289.1,243.5,288.8,242.5C287.7,242.8,288.8,242.6,288.8,242.5z M146.2,413.2
			c-0.1,0.2-2.5,8.5-3.1,8.2C141.4,420.7,142.6,411.9,146.2,413.2C145.2,416.1,145.7,413,146.2,413.2z M425.8,302.8
			c-2.7,2.9-3.4-2.2-5-4C423.2,298.6,426.2,299.8,425.8,302.8C425.7,302.9,426.2,299.8,425.8,302.8z M442.1,341
			c-0.3,0.5-0.5,1.1-0.8,1.6c-1.8-1.7-3.2-4.3-3.5-6.8C439.9,335.6,442,339.1,442.1,341C441.9,341.3,442,339.2,442.1,341z
			 M425.1,293.4c-1,3.2-2.4,3.4-4.2,0.5C422.6,291.1,424,290.9,425.1,293.4C424.4,294.3,424.5,292.7,425.1,293.4z M125.2,291
			C125.4,297.7,117.5,293.5,125.2,291C125.2,292.4,124.6,291.2,125.2,291z M349,233.9c1-0.1,1.9,0,2.8,0.4c-2,1.7-4.1,2.2-6,0.1
			C346,234.2,349,232.9,349,233.9C349.4,233.9,349,233.8,349,233.9z M409.2,261.9c-4.4-3.4,1.8-3,2.1-2.5
			C411.3,260.7,410.6,261.6,409.2,261.9C408.7,261.5,409.9,261.5,409.2,261.9z M239.2,111.3c-1.8,0.8-5.1,2.9-7.1,2.5
			C233.2,111.8,237.3,109.2,239.2,111.3C238.9,111.4,238.8,110.9,239.2,111.3z M60,579.2c0.3,1.9,1.4,4.9,0.6,6.8
			C58.1,584.6,58.8,581.3,60,579.2C60.3,581.2,58.8,581.3,60,579.2z M453.6,351.4c0.3,0.8,0.2,1.5-0.4,2c-1.3,1.1-1.9-3.9-1.4-5.1
			C453.1,348.9,453.7,349.9,453.6,351.4C453.6,352.2,453.5,350.9,453.6,351.4z M523,258.8c-2.1,1.4-4.3,0.1-2.4-2.1
			C521.4,257.4,522.2,258.1,523,258.8C522.3,259.2,522,257.9,523,258.8z M238.6,386.5c1.7,1.8-1.5,3.1-3.1,1.9
			C236.4,387.6,237.5,386.9,238.6,386.5C238.8,386.7,237.8,386.9,238.6,386.5z M400.2,256.9c1.5,1,2.4,2.5,2,4.2
			C400.5,260.7,399.1,258.6,400.2,256.9C400.5,257,400.1,257.1,400.2,256.9z M151.5,490.9c-0.3,0.5-0.6,1-0.9,1.6
			c-1.4-1.2-1.5-2.4-0.3-3.8C150.7,489.4,151.1,490.1,151.5,490.9C151.1,491.5,151.1,490.1,151.5,490.9z M434.8,319.1
			c-3.3-6.4,3.1,5.2,0.7,3.6C433.8,321.9,433.6,320.7,434.8,319.1C435.4,320.3,434.4,320.2,434.8,319.1z M460.6,465.8
			c-1.2,2.4-3-2.4-1.9-4C459.9,462.6,460.6,464,460.6,465.8C460.4,466.2,460.1,464.6,460.6,465.8z M407,255.7
			c3.1,4.3-1.1,1.6-1.3,2.1C406.2,257.1,406.6,256.4,407,255.7C407.6,256.5,406.4,256.6,407,255.7z M311.4,235.7
			c1.8,0.9,1.3,1.8-1.7,2.7c-0.3-0.3-0.6-0.6-0.9-1C309.7,236.9,310.6,236.3,311.4,235.7C311.9,236.1,310.6,236.3,311.4,235.7z
			 M458.2,456.1c-1.8,2.6-1.9-2.2-1.8-2.1C457.6,454.3,458.1,455,458.2,456.1C458,456.5,458.4,454.6,458.2,456.1z M130.2,233.4
			c1.2,1.4,1,2.3-0.5,2.9C127.4,236.8,131.2,232,130.2,233.4C130.6,234.4,129.5,234.3,130.2,233.4z M139.1,513.3
			c-2.6,1.8-1.5-3.1-1.2-2.4C138.3,511.7,138.7,512.5,139.1,513.3C138.9,513.5,138.6,512.5,139.1,513.3z M362.6,237.4
			c-1.5-1.4,0.6-2.4,1.9-1.6C363.9,236.3,363.3,236.8,362.6,237.4C362.3,237,363.3,236.8,362.6,237.4z M135.3,379.1
			c-1.8,0.3-3.9-1.9-2.8-3.6C133.5,376.7,134.4,377.9,135.3,379.1C135,379.1,134.3,377.8,135.3,379.1z M423,287.5
			c-0.7,1.5-1.4,1.5-2,0.1C421.6,286.4,422.3,286.4,423,287.5C422.5,288,422.5,287.1,423,287.5z M142.4,493.3
			c-0.9,1.5-1.8,1.6-2.6,0.4C139.2,492,142.9,493.5,142.4,493.3C141.7,493.9,141.5,493,142.4,493.3z M303.5,240.2
			c-0.8,1-1.6,1.1-2.4,0.2C301.8,239.1,302.6,239,303.5,240.2C302.8,240.6,302.9,239.7,303.5,240.2z M246.5,188.2
			c-1.6-2.3,1.6-1.7,1.7-1.8C247.6,187,247.1,187.6,246.5,188.2C246.1,187.7,247.2,187.5,246.5,188.2z M454.6,359.2
			c-1,0.7-2,0.6-2.8-0.6C452.8,357.8,453.7,358,454.6,359.2C453.9,359.4,453.8,358.7,454.6,359.2z M130.4,277.9
			c-0.9-1.2-0.7-2.2,0.4-3.1C131.7,275.8,131.5,276.8,130.4,277.9C130.1,277,130.9,276.9,130.4,277.9z M238.4,227.3
			c-1.1,1.1-1.9,1.2-2.4,0.2C236.9,226.4,237.7,226.4,238.4,227.3C237.5,227.7,237.9,226.9,238.4,227.3z M149.8,359
			c1.3,1,1.5,2,0.4,2.9C149.2,361.2,149,360.3,149.8,359C150.3,360,149.6,360.1,149.8,359z M436.3,325.5c0.9,0.5,1,1.2,0.5,2
			C436,327,435.9,326.3,436.3,325.5C436.8,326,436.2,326.2,436.3,325.5z M135.7,322.6c-0.7,0.9-1.1,0.9-1.4,0
			C134.9,321.3,135.4,321.3,135.7,322.6C135.3,322.9,135.5,322.2,135.7,322.6z M449,363.8c-1.2-0.6-1.5-1.2-0.8-1.7
			C449.5,362.7,449.8,363.3,449,363.8C448.7,363.3,449.1,363.7,449,363.8z M467,358.2c-0.5-0.7-0.6-1.4-0.2-2.1
			C467.5,356.7,467.6,357.4,467,358.2C466.8,357.5,467.3,357.5,467,358.2z M120.6,290.1c-0.6,0.8-1,0.8-1.3,0.1
			C119.7,289.3,120.2,289.3,120.6,290.1C120.2,290.4,120.3,289.8,120.6,290.1z M244.1,250.8c-0.5,0.2-1,0.2-1.5,0.1
			C243,250.6,244,249.9,244.1,250.8C243.9,250.8,244.1,250.7,244.1,250.8z M306.8,239C305.5,238.1,307.8,237.9,306.8,239
			C306.6,238.9,307,238.9,306.8,239z M431.2,306.7C432.3,307.7,430.1,308.4,431.2,306.7C431.4,306.9,431,307,431.2,306.7z
			 M267.4,701C266.4,700.1,268.2,700,267.4,701C267.2,700.8,267.6,700.8,267.4,701z M436.4,323.8
			C436.9,324.6,434.7,325.6,436.4,323.8C436.5,324,436,324.1,436.4,323.8z M252.8,193.4c-0.6,0.7-1,0.6-1.2-0.1
			C252,192.7,252.4,192.7,252.8,193.4C252.4,193.6,252.4,193.1,252.8,193.4z M191.4,307c-0.8-0.3-0.8-0.8,0-1.5
			C192,305.8,192.1,306.3,191.4,307C191.1,306.8,191.5,306.5,191.4,307z M69.2,596.4C68.1,597,68.2,595.6,69.2,596.4
			C68.9,596.6,68.9,596.2,69.2,596.4z M210.6,190.8C209.2,191.2,210.1,190,210.6,190.8C210.4,190.9,210.5,190.7,210.6,190.8z
			 M317.7,234.5C317,233.9,318.6,234.1,317.7,234.5C317.6,234.4,317.8,234.4,317.7,234.5z M419.8,633.6
			C419.2,633.4,420.2,633.1,419.8,633.6C419.8,633.6,419.9,633.5,419.8,633.6z M439.1,328.1C439.6,329,438.2,328.7,439.1,328.1
			C439.2,328.3,439,328.2,439.1,328.1z M65.7,604.3C65.4,605.4,65.2,603.2,65.7,604.3C65.7,604.4,65.7,604.2,65.7,604.3z
			 M228.7,274.9C227.6,275.5,228.1,274.2,228.7,274.9C228.5,275,228.6,274.8,228.7,274.9z M210.5,267.2
			C210.1,266.6,211.3,266.8,210.5,267.2C210.4,267.1,210.6,267.1,210.5,267.2z M457.7,477.1C457,477.4,457.3,476.3,457.7,477.1
			C457.6,477.1,457.7,476.9,457.7,477.1z M245.7,262C244.9,262.3,245.3,261.3,245.7,262C245.6,262,245.7,261.9,245.7,262z
			 M151.6,475.4C150.8,476.3,150.6,474.9,151.6,475.4C151.4,475.6,151.4,475.3,151.6,475.4z M505.6,252.3
			C505,251.1,506.5,251.9,505.6,252.3C505.5,252.1,505.8,252.2,505.6,252.3z M144.2,245.5C143.4,245.9,143.8,244.7,144.2,245.5
			C144.1,245.5,144.1,245.4,144.2,245.5z M213.9,190.5C213,191,213.5,189.8,213.9,190.5C213.7,190.6,213.8,190.4,213.9,190.5z
			 M228.3,269.7C227.9,269.9,228.1,269.4,228.3,269.7C228.2,269.7,228.3,269.6,228.3,269.7z M462.7,337.8
			C462.1,337,463.5,337.1,462.7,337.8C462.6,337.7,462.8,337.7,462.7,337.8z M446.6,345.4C446,344.6,447.4,345,446.6,345.4
			C446.5,345.3,446.7,345.4,446.6,345.4z M437.3,329.5C436.8,329.7,437.2,328.9,437.3,329.5C437.2,329.5,437.3,329.4,437.3,329.5z
			 M439.6,322C440.4,322.4,439.1,322.7,439.6,322C439.7,322,439.5,322.1,439.6,322z M422.7,628.7C422.8,628.4,423,628.9,422.7,628.7
			C422.7,628.7,422.7,628.8,422.7,628.7z M148.6,635.1C148.3,635.9,147.9,634.8,148.6,635.1C148.6,635.2,148.5,635,148.6,635.1z
			 M325.5,234.1C325.3,234.4,325.1,233.9,325.5,234.1C325.5,234.1,325.4,234.1,325.5,234.1z M147.7,370.1
			C147.5,370.2,147.5,370.2,147.7,370.1L147.7,370.1z M423.1,289.3C422.9,288.9,423.6,289.1,423.1,289.3
			C423.1,289.2,423.2,289.3,423.1,289.3z M128.7,336C128.3,336,128.2,335.7,128.7,336C128.5,336,128.5,335.9,128.7,336z M136,319.4
			C136.1,319.8,135.6,319.6,136,319.4C136,319.5,136,319.4,136,319.4z M175.3,238.5C175.2,238.7,174.8,238.7,175.3,238.5
			C175.2,238.6,175.2,238.5,175.3,238.5z M145.9,364.3C145.7,364.6,145.5,364.1,145.9,364.3C145.8,364.3,145.8,364.2,145.9,364.3z
			 M150.9,483.1C150.7,482.5,151.4,482.6,150.9,483.1C150.9,483,151,483,150.9,483.1z M154.4,345C153.9,345,154.6,344.5,154.4,345
			C154.3,345,154.4,344.9,154.4,345z M473.6,500.8C473.9,501.4,473.1,500.8,473.6,500.8C473.6,500.9,473.5,500.8,473.6,500.8z
			 M157.5,335.3C157.3,335.6,157.1,335.1,157.5,335.3C157.5,335.4,157.4,335.3,157.5,335.3z M328,233.5
			C327.9,233.3,327.9,233.4,328,233.5L328,233.5z"/>
		<path fill-rule="evenodd" clip-rule="evenodd" d="M403.9,85.3c-0.3-0.1-0.5-0.2-0.8-0.2C403.4,85.2,403.7,85.3,403.9,85.3z"/>
		<path fill-rule="evenodd" clip-rule="evenodd" fill="#FFFFFF" d="M303.3,254.9c1.2-1,9.2-2.4,9.3-4c0-3.6-26.8,2.9-29.6,2.2
			c-1.9-0.5-6.9-4.4-8.6-1.4c-2.2,4-5.6,6.5-9.1,9.4c-4.7,3.9-9.3,8.3-15.5,9.4c-4.7,0.8-11,0.7-15.2,2.9c-8,4.1-16,12-23.3,17.4
			c7.2-0.5,11.6-7.5,19.6-6.9c-0.6,0.6-1.1,1.1-1.6,1.7c4.8,0.7,9.9-3.3,14.1-5.1c7.2-3.1,14.5-6.2,21.6-9.6
			c9.8-4.7,23.4-14.5,33.6-14.5c-5.9,7.3-22.4,12.4-30.9,16.6c-6.3,3.1-14.1,6.5-19.8,8.8c-5.8,2.3-11.7,4.1-17.7,5.6
			c-4.5,1.1-7.8-0.2-11.3,3c-5.1,4.7-17.8,8.5-17.7,16.7c4-0.3,10.5-5,13.2-8.1c1-1.2,5.9-4.4,4.3-0.2c-1,2.8-10,7.7-12.4,9.8
			c-2.7,2.4-6.7,4.8-6.6,8.8c2.6-0.1,6.4-3.1,8.3-4.7c0.6,4.4-9.3,9.3-11,13.3c-1.2,2.9-4.8,0.9-6.6,3.3c-1.6,2-2.2,4.8-2.4,7.2
			c1.3-1.1,1.3-1.3,2.5-1.7c0.1,1.2-1.7,2-0.9,2.9c3-2.4,6.5-6.8,10.5-7.1c-1.5,5.4-8.3,7.6-9.9,12.6c2.9-0.7,10.5-9.2,13.3-7.6
			c-4.9,7.9-14.8,15.1-22.8,19.8c-6.4,3.7-12.3,16.4-12.6,24c8.5,0,14.6-8,23-7.8c2.8,0,20.1-1.1,20,1.9c-0.1,2.6,21.6,2.5,24.4,3
			c3.8,0.7,8.9-1.2,12,1.8c1.8,1.7,1.9-1.4,3.9-0.4c1.5,0.7,8.2,5.2,9.6,5.3c3.5,0.3,5.9-0.7,9.6,1c1.3,0.6,5.7,5.5,6.6,4.1
			c0.3-0.5,3.4-3.2,3-0.6c-0.1,0.5-1.1,7.1,2.4,3.3c1.3-1.5,3.6,3.1,4.4,3.9c2.5,2.1,4.7,1.5,2.4,5c-2.5,3.7,0.9,8.9-1.5,12.4
			c-2.1-2.3-4.9-4.8-6.5-7.4c-1.9,3.4-2.1,7.9-5.4,10.3c-4.5,3.4-4.4-4.1-5.2-6.1c-2.3-5.7-8.1-2.6-11.2-0.6
			c-4.1,2.6-0.9-6.8-1.4-7.9c-1,0.7-7.8,12.2-5.1,2.1c2.5-9.1-4.8,0.7-6.4-5.9c-1.3-5.5-7.8-3.1-11.8-7.1
			c-6.2-6.4-19.1-3.6-27.1-5.8c-9.4-2.5-16,3.2-21.7,9.6c-5.7,6.4-6.6-0.1-7-5.2c-0.2-3.2,6.7-2.8,7.2-6.1c0.5-3.2,2.6-0.5,4.1-1.4
			c2.5-1.5-0.2-4.3,4.1-4.1c2.9,0.2,6.2,1.2,8.9-0.2c-3.6-4.4-16.6-0.4-20.8,1.9c-6.8,3.7-9,14.3-15,19c-2.9-5.8,7.4-10.4,9.6-15.3
			c-5.2,0.8-14.6,7.5-14.9,12.6c-0.2,3.9,2.7,6.1,3.1,9.3c0.6,4-2.6,9.9-3,14.1c-0.4,3.8-2.5,14.2-0.8,17.7c1.6,3.2,2.9,1.5,2.5,7.4
			c-0.8,12.3-2.7,24.1-4.9,36.2c-1.1,6.3-3.1,10.9-1.7,17.6c1.4,6.7,3.9,13,5.5,19.6c3.4,13.7,6.9,27.4,10.3,41
			c3.2,12.5,5.6,25.2,8.4,37.9c2.8,12.4,10.5,23.7,18.3,33.6c8.8,11.1,21.1,19,30.9,29c8.2,8.4,17.1,16.2,25.9,24
			c10.2,9,19.6,18.4,29.3,28c10.8,10.7,18.5,11.6,32.9,13.3c27.9,3.4,43.6-26.8,57.8-45.6c8.1-10.8,14.9-22.6,24.1-32.6
			c4.6-4.9,9.6-9.5,13.9-14.7c3.8-4.7,6.4-10.1,11.5-13.5c4.3-1.2,9.5-15.2,11-20c2.9-9.3,2.5-20.5,3.8-30.3
			c2.8-20.4,6.1-42.3,11.4-62.3c3.1-11.6,6.1-30.5,2.5-42.2c-2.2-7.2,0.5-19.2-6.4-24.8c-3.4-2.8-2.9-9.8-3.6-13.8
			c-0.6-3.4,1.2-5.7,0.6-8.4c-0.4-1.8-1-11.9,3.1-10.9c3.2,0.7,0.2,4.4,2.4,5.5c1,0.5,0.5-21.3,0.3-22.6c-0.8-4.9-1.2-9.3-2.4-14.3
			c-1.5-6.5-4-13-7.3-18.7c-2.2-3.9-2.9-7.3-5.8-11c-0.9-1.2-5.6-5.5-5.1-7.2c0.5-1.6,3.6-0.8,4.9-1c-1-1.4-2.4-6.5-4.3-6.7
			c-0.9,0.7-1.7,1.5-2.3,2.5c0.2-2.7-1.6-7.5-1.1-9.3c0.5-1.7,2.8-3.1,1.9-5.1c-4.2-9.1-5.7,5.8-7.8,6.4c-3.8,1,1.9-10.2,2.5-11
			c0.4-0.6-1.6-3.2-2.5-1.8c-0.8,1.4-0.1,3.1-1,4.5c-1.8-1.5-0.4-5.5-0.7-7.8c-0.4-3.3-3-5-3.2-8c-0.2-4.6-4-11.2-6.9-14.4
			c-1.1-1.2-5.1-2.8-3.9-4.9c1.4-2.5,1.6-5.3,0.1-7.9c-2.1-3.8-9.1-6.1-11.7-4.5c-0.3,0.2-1.2-9-1.4-9.2c-0.7-1.4-4-8.9-6.8-5.7
			c1.5,1,5.5,5.4,0.6,5.9c-1,0.1-8.2-7.1-10.2-7.9c-3.7-1.6-29-13.7-30.9-5.3c-0.2,0.7,2.9,1.8,2.2,3c0.5-1-13.6-0.8-15.3-0.7
			c-6.3,0.4-7.6-2.4-13.1,1.5C322.3,254.1,307.1,254,303.3,254.9z M177.6,372.9c0.8-0.3,1.4-0.2,1.9,0.3
			C179.9,372.9,176.5,373.6,177.6,372.9C178.1,372.9,177.5,373,177.6,372.9z M365.5,630.7c-2.6-0.9-4.3,4-7.4,3.8
			c-2.5-0.1-4.4-1.3-7-1.2c-4.7,0.2-13.1,0.6-17.4,2.9c-4.7,2.6-10.6,3.5-16.7,5.9c-1.7,0.7-16,1.6-15.9,1.4
			c-0.6,1.2,3.2,2.3,1.4,3.7c-2.4,2-7.2-1.7-9.4-2.5c-5.5-2-12-8.6-17.7-8.6c-2.4,0-3.5-3.1-6.2-3.6c-1.7-0.3-2.4,7.1-2.5,7.9
			c-0.7,4.8,8.6,10.9,10.7,14.7c7.4,13.8,23.3,22,38.5,21c16.6-1.1,26.6-21.7,34.9-33.4c1.3-1.8,5.2-5.8,6.2-1.2
			c0.8,3.3-4,8.4-5.6,11c-4.2,6.9-8.8,15.1-14.9,20.6c-8.6,7.8-22.8,12.2-35.9,9.2c-6.4-1.5-13.1-5.5-18-9.7
			c-5.6-4.8-7.8-12.8-13.7-17.3c-4.9-3.8-8.9-11.3-13.4-15.9c-4.6-4.6-2.3-5.9-2.3-10.3c0-0.3-9.1-1.7-10.5-3.7
			c0.9-0.2,1.7-0.1,2.5,0.4c-1.7-3-10.7-6-8.4-10.4c1.2-2.4,7.7-1.2,9.3,0.2c8.5,7.6,17.1-0.5,24.9-5.7c4.3-2.9,14.7-4,17.8-7.6
			c4-4.8,15.7,4.8,20.3,7.2c2.3,1.2,11.5-5.6,14.1-6.7c5.5-2.3,8.9-5.3,14.9-3c8.7,3.3,15.5,11.4,23.6,16.2
			c5.7,3.3,7.9,1.1,13.3-1.8c1.6-0.9,4,1.9,3.9,3.4c-0.1,4-8.1,5-9.3,8.7C368.3,630.2,370,629.5,365.5,630.7c0.1,0,0.2-0.1,0.3-0.1
			C365.7,630.7,365.6,630.7,365.5,630.7C363.9,630.2,365.6,630.7,365.5,630.7z M359.9,437c-8.7-1.5,4.3-5.2,7-5.7
			c6.2-1.1,12.1-6,17.6-8.9c11.1-6,30.6-6.9,39.8,3.7c-3.2,0.8-9.7-5.4-11.9-3.9c-2.7,1.8,0.6,5.7,1.8,6.8c2.3,2.1,5.8,5.1,9,2.9
			c2.8-2,8.4-4.9,11.2-1.7c2,2.2,4.5,3.8,3.5,7c-1.8,5.7,0,1.5,1,5.8c0.5,2.3-4.7,3-5.8,4.7c-2,3.2,0.1,7.6-1.7,10.2
			c-1.4,2-4.2,1.2-5.5,3.7c-0.6,1.6-1.4,3-2.4,4.4c-2.2,2.1-6.8,4-9.4,5.6c-5.3,3.4-14.1,2.7-15.6,8.1c-1.5,5.4-20.7-1.1-24.2-1.6
			c-10.2-1.5-7.3-2.9-10.2-10.5c2.5-0.7,16.5,0.9,14.6-2.9c-1.9-3.8-6.9-13.1-11.1-8.7c-3.9,4.1-5.1,9.1-9.3,13
			c-1,0.9-9.9,0.6-11.1,0.2c-8.6-2.8,0.2-6.1,3.1-8.5c4.6-3.7,9.1-8,13.1-12.2c5.5-5.8,12.3-8.5,18.2-13.6c3.3-2.8,9.9-3.2,11.2-7.7
			c-4.6-0.3-12.5,5.3-17.1,7.1c-4.9,1.9-13.3,7.8-15.1,13c0.1-0.4-9.2,4.6-10.4,3.6C346.6,448.3,358,439.4,359.9,437
			C359.7,437,358.5,438.8,359.9,437z M246.8,470.5c-1.8,0.5-3.3,1.4-4.5,2.8c1.4,1.2,8.7,2.2,10.9,2.6c4.3,0.9,3.9-0.1,7.3,3.4
			c-4.7,2.1-10.9,2.4-15.2,5.2c-5.1,3.4-10.8,0.3-16.1-0.9c-6.9-1.5-14-6.6-20.9-7c0.1,0.7,0.3,1.3,0.6,1.9c-1.8,0-9.5-4.6-11.1-6.4
			c-2.8-3.3-3.2-6.5-5.4-9.7c-3.7-5.5-7.5-10.4-12-15.3c-4-4.3-5.3-4.5-4.4-9.8c1.2-7.2,3.4-2,7.7,1.1c2.6,1.9,10.6,0.3,13.1-1.1
			c9.4-5.2,25.5-5.1,35.4-1.5c7.5,2.8,14.9,5.4,21.8,9.4c3.2,1.9,6.5,6.3,9.7,7.5c3.5,1.3,16.6,17.4,15.5,20.3
			c-1,2.5-12.2,0.7-13.9-0.6c-3.9-2.9-5.9-10.9-8.3-15.1c-4.1-7.5-3.9,0.2-6.7,4.2c-2.5,3.6-6.4,5.6-8.8,9.1
			C242.2,470.6,246.6,470,246.8,470.5C245.5,471.2,246.7,470.4,246.8,470.5z M355.3,545.2c-1.9,6-3.7,14.6-11.4,15
			c-1.2,0.1-5.1-3.6-5.9-1.1c-1,3.2-0.5,6.6-1.7,9.9c-6,16.8-26.9,21.1-39.9,9.2c-5.2-4.8-6.5-9.9-8.7-16.2
			c-0.6-1.6-7.2,0.4-8.2,0.2c-1.9-0.3-5.6-2.9-7.3-4c-2.8-1.9-10.9-10.4-8.5-14c2.2-3.3,7-9.1,5.4-13.1c5.6-0.8,5-9.1,9.5-9.6
			c0.5-0.1,10.8-11.8,6.3-1.2c-3.6,8.4-21.3,27.3-6.6,32.9c-0.2-6.9,10.5-11.2,15-4.9c4.8,6.9,13.8,11.9,22.5,9.6
			c8.5-2.2,10.6-8,17.5-11.5c5.8-3,13.4-1.1,8.5,5.7c17.1,3,0.2-30.1-1.9-34.8c-1.4-3.1,3.1-1.1,3.7,0c1.6,2.7,2.8,5.7,4.6,8.2
			C352.7,531.7,354.4,537.7,355.3,545.2C354.7,547,354.5,538.9,355.3,545.2z M386,391.8c-5-4.5-6.4,2.2-8.6,4.1
			c0.5-0.4-9.5-1.6-5.6,3c0.2,0.2,3.7-0.7,4.2-0.6c-3.1,6.1-4.2-0.2-6.8-0.1c-2.3,0.1-0.4,4.4-1.8,5.1c-1.1,0.6-7.4-4-5.5,2.4
			c1.8,5.9-2.4,1.9-4.2,2.3c-1.9,0.5-3.8,4.4-4.8,5.9c-2.5-2.6-11.8-10.3-11.9-14c-0.1-2.4,2.8-7.9,3.6-10.5c1-3.2,5.3,0.4,5.4-2.9
			c0.1-3.6,13.1-6.5,15.9-6.1c2.1,0.3,3.6-4.1,4.5-5.7c0.9-1.7,5.6,0.3,6.9,0.3c-0.2,0,4.9-1.1,4,0.2c3.5-4.9,0.7-1.9,4.4-1.8
			c8,0.2,15.3-5.3,23.4-5.3c4.3,0,8.8-0.3,13.1-0.2c6.6,0.3,3.5,1.2,7.7,5.3c3.9,3.8,2.5,6.2,2.8,10.3c0.2,2,2.1,3.2,2.2,6
			c-6.3-6.8-13.8-14-23.5-11.6c-3.3,0.8-20.1,4.7-12.5,8.1c-4.2,2.1-4.5-3.4-7.2,1.6C390.4,389.7,384.5,385.2,386,391.8
			C383.9,389.9,385.8,391.1,386,391.8z M207.6,422.5c12.6-1.2,27.9,2.6,39.7,7c7,2.6,16.6,10,16,17.3c-7.9-1.9-13.2-9.9-20.8-12.8
			c-7.8-3-24.5-7.4-32.7-5.9c-1.7,0.3-21.8,12.5-20.2,4.4C190.5,427.6,207.2,420.9,207.6,422.5C208.9,422.3,207.5,422.3,207.6,422.5
			z M394.6,609.4c-0.3,2.3,0.1,7.2-2.3,8.6c-0.5-2.2-3.4-8.6-3.3-10.1c0.3-4.6-5-6-4.9-9.8c0.1-3-0.9-9.1,5.1-4.5
			C393.6,596.9,394.6,604.3,394.6,609.4C394.3,611.6,394.6,604.6,394.6,609.4z M189.7,356.6c-1.5,2-16.5,16.3-16.6,12.2
			C173.1,365.4,188.4,355.6,189.7,356.6C189.3,357,189.4,356.3,189.7,356.6z M238.6,632.3c-4.7-3.9,4.9-2.2,4-1.7
			C241.2,631.2,239.9,631.7,238.6,632.3C238,631.8,240.1,631.6,238.6,632.3z M388.4,393.1c-0.5-0.5-0.9-1-1.4-1.5
			c-6.3,3.7,4.7-3,3.1-0.8C389.6,391.6,389,392.3,388.4,393.1C387.8,392.4,389.1,392.2,388.4,393.1z M254,464.2
			c-1.2-1.3-0.9-2.4,0.9-3.4C256.1,461.8,255.8,463,254,464.2C253.6,463.5,254.6,463.1,254,464.2z M283.2,257.8
			c-0.9-2.2-0.3-3.1,1.6-1.2C284.2,257,283.7,257.4,283.2,257.8C282.9,257.1,283.9,257.3,283.2,257.8z M173.7,374.4
			c-0.9,0.1-1.5-0.2-2-0.9c1.1-0.4,2.1-0.1,3.3-0.1C174.6,373.7,174.2,374.1,173.7,374.4C173,374.3,174,374.2,173.7,374.4z
			 M237.3,374.2c-0.9,1-1.7,1-2.2-0.1C235.9,373,236.6,373,237.3,374.2C236.7,374.6,236.8,373.8,237.3,374.2z M275.5,255.1
			c-0.6,0.8-1.1,0.8-1.6,0C274.2,254,274.7,254,275.5,255.1C275,255.5,275,254.8,275.5,255.1z M304.3,666.6
			c-1.1-0.8-1.2-1.4-0.2-1.7C304.9,665.5,305,666.1,304.3,666.6C303.9,666.1,304.5,666.3,304.3,666.6z M290.4,467
			c-0.4,1.4-0.7,1.4-0.9,0C289.8,465.6,290.1,465.6,290.4,467C290.2,467.4,290.2,466.7,290.4,467z M240.3,624.7
			c-0.8,0.6-1.4,0.4-1.8-0.6C239.1,623.4,239.7,623.6,240.3,624.7C239.8,624.9,239.7,624.2,240.3,624.7z M206.4,302.7
			c-0.5,0.9-0.9,1-1.2,0.2C205.6,302.2,206,302.1,206.4,302.7C206,303,206.1,302.5,206.4,302.7z M289.9,443.6
			C288.9,442.5,290,441.8,289.9,443.6C289.5,443.3,289.9,443.1,289.9,443.6z M448.4,400.3C449.3,400.9,448.1,401.6,448.4,400.3
			C448.6,400.4,448.4,400.5,448.4,400.3z M305.7,667C306.6,667.4,305.2,668.2,305.7,667C305.8,667.1,305.6,667.2,305.7,667z
			 M437.1,590.5C436.4,590,437.8,589.5,437.1,590.5C437,590.4,437.2,590.4,437.1,590.5z M278.4,258.7
			C277.5,258,279.2,257.7,278.4,258.7C278.2,258.5,278.5,258.5,278.4,258.7z M341.4,390.1C340.7,389.2,341.9,389,341.4,390.1
			C341.2,389.8,341.5,389.8,341.4,390.1z M276.9,261.4C276.3,260.9,277.1,260.7,276.9,261.4C276.8,261.3,277,261.2,276.9,261.4z
			 M280.2,257.3C279.8,258.2,279.4,256.9,280.2,257.3C280.1,257.4,280.1,257.3,280.2,257.3z M250,468
			C248.9,468.4,249.7,467.4,250,468C249.8,468.1,249.9,467.9,250,468z M289.8,434.9C289.2,435.6,289.2,434.3,289.8,434.9
			C289.7,435,289.7,434.8,289.8,434.9z M312.2,670.5C313,671,311.7,671.3,312.2,670.5C312.3,670.6,312.1,670.6,312.2,670.5z
			 M355.1,378.9C354.5,379.7,354.3,378.1,355.1,378.9C355,379,355,378.8,355.1,378.9z M340.7,405.5
			C339.9,405.5,340.7,405.1,340.7,405.5C340.6,405.5,340.7,405.5,340.7,405.5z M282.5,413C282.2,413.7,281.8,412.8,282.5,413
			C282.4,413.2,282.4,413,282.5,413z M288.1,415.7C288.3,416.3,287.7,416.2,288.1,415.7C288.2,415.8,288.1,415.8,288.1,415.7z
			 M399.2,369.4C398.7,369.7,399,368.8,399.2,369.4C399.1,369.5,399.2,369.4,399.2,369.4z M303,662.9
			C302.6,663.6,302.7,662.6,303,662.9C303,663,303,662.9,303,662.9z M338.1,674.6C337.9,674.5,337.9,674.5,338.1,674.6L338.1,674.6z
			 M301.3,255.6C301.1,255.5,301.1,255.5,301.3,255.6L301.3,255.6z M289.8,463.4C289.8,463.1,290.2,462.9,289.8,463.4
			C289.8,463.3,289.9,463.3,289.8,463.4z M230.2,372.5C230.1,372.8,229.9,372.3,230.2,372.5C230.2,372.5,230.2,372.5,230.2,372.5z
			 M237.1,370.9C237,371.1,237,371.1,237.1,370.9L237.1,370.9z M309.2,670.1C308.8,669.8,309.8,669.9,309.2,670.1
			C309.2,670.1,309.3,670.1,309.2,670.1z M244.6,395.1C244.7,394.8,245.1,394.8,244.6,395.1C244.7,395,244.7,395,244.6,395.1z"/>
		<path fill-rule="evenodd" clip-rule="evenodd" fill="#FFFFFF" d="M123.7,229.5c0.6,0.8,3.2,5.1,4.5,4.9c3.4-0.6-1.6-14.8-1.5-16.7
			c2.8,3.3,2.8,7.9,5.4,11.4c1-1,10.5-19.5,10.5-19.5c-3-4.9-2.1-7,1.3-10.9c2.6-2.9,2.3-6.9,4.7-9.6c3.1-3.4,5.2-7.1,8.1-10.5
			c2.4-2.9,4.1-4.3,2.3-8c-1.1-2.3,11.1-11.2,13.5-13.2c12.6-10.1,23.1-22.1,35.9-32.3c8.2-6.5,16.9-12.4,25.9-17.7
			c4.2-2.4,8.4-4.3,12.7-6.5c1.8-0.9,7.9-6.4,9.3-6.3c1.1,0.1-0.1,3.1,0.3,3.5c2.6,2.3,15.1-10.5,18.7-10.7c-0.5,1.4-1.5,2.5-3,3.2
			c2.8,1.6,11.6-2.7,14.6-3.5c5.2-1.4,10.3-2.1,15.6-3c9.4-1.5,18.2-5.4,27.7-6.4c8.7-1,19.9-2.7,27.3,3.1
			c4.5,3.5,11.4,1.9,15.2,7.9c-7.9,1-15.7-7-23.5-8.1c-10.5-1.5-17.5,1.8-27.5,2.8c-6.2,0.6-7,1.9-12.2,4.6
			c-4.1,2.2-10.9,1.7-15.5,2.2c-7.7,0.8-17.6,3.6-24.7,6.8c-16.3,7.5-32.9,18.3-47.6,28.6c-7.3,5.1-14,10.7-20.9,16.2
			c-4.5,3.5-11.4,8.1-12.9,13.9c4.3,0.9,8.2-4.1,11.7-2.9c4.7,1.6-2.1,4.4-3.8,4.5c-11.6,0.7-16.8,9.8-23.5,18
			c-5.8,7.1-11.4,14.2-15.8,22.5c-2,3.8-18.2,29.8-15.1,33.5c0.9,0.1,1.8,0.1,2.7-0.1c-0.6,3.3-10.2,12.3-8.2,14.7
			c2.2,2.7,7.8-7.4,8.8-8.3c0.2,1.1,0.7,2.1,1.4,2.9c0.1,8.9-5,17.2-5.1,25.8c5.2-1.8,13.4-14.9,15.6-19.8c1.3-2.8,3.3-7.7,5.9-9.5
			c1.6-1.2,3,0.2,3.8-2.3c-0.5-1.2-1.2-1.3-2.1-0.4c6.2-8.4,12.1-16,20.4-22.3c8.6-6.6,13.2-14.1,19.5-22.8c2.5-3.5,5.4-4.8,8.4-7.6
			c2.2-2,3.1-5.4,4.5-6.9c6.3-6.9,16.6-11.2,23.5-17.9c6.6-6.4,16.3-10.1,23.9-15.3c8.9-6.2,20.1-10.4,30.6-13
			c19.4-4.9,37.6-5.7,56.8-1.1c42.2,10,78.7,23.3,108.2,56.8c9.9,11.3,19.7,21.3,26.1,35.5c3.5,7.9,8.9,17.5,9.8,26.3
			c0.6,5.3,2.1,14.3,4.8,18.7c1.8-2.5,4.6-9.4,3.8-11.6c-0.6,0-1,0.3-1.3,0.9c-1.5-4.5,0-10.2-0.9-15c-0.9-5-3.9-10.9-3.7-15.9
			c4.7,1.9,11.2,22,9.7,27c-2.7,8.7-4.8,23.6-1.4,32.1c4.3-4.8,7.5-15.9,7.1-22.3c-0.1-2.1-3.9-3.6-2.5-5.4c1.3-1.7,2.5-3.1,2.7-5.5
			c0.4-5.2-2.6-13.6-4.4-18.7c-1-2.7-9.2-18-8.2-19.5c0.1-0.1,8.6,11.5,9.2,12.8c2.9,5.9,4,14.9,7.7,19.8c3.9-4.3-1.1-16.9-2.3-22.1
			c-1.8-8.1-6.4-15.8-9.9-23.3c-6.6-14.3-12.5-28.2-21.1-41.2c-8.9-13.6-18.6-25.8-29.7-37.6c-6.7-7-12.9-11.1-21.5-15.4
			c-4.4-2.2-14.7-8.4-19.5-6.9c3.7,6.7,15.4,9,20.7,14.7c0.3,0.3,5.9,8.1,6.2,7.5c-0.7,0.1-1.3,0.1-2,0.2c2.7,4.7,8.1,6.2,11.5,9.7
			c2.2,2.3,4.1,4.9,6.8,7.4c4.4,4.1,15.9,16.9,14.7,22.5c-8.6-3.9-13.9-17.6-22.3-22.8c-13-8.1-23.1-22.1-35.8-31.1
			c-6.6-4.7-13.7-8.6-20.4-13.1c-3.8-2.5-7.4-7.4-11.4-9.3c-2-0.9-6.6-0.2-7.6-2.4c-0.9-1.9,0.9-2.5-1.7-3.5
			c-5.5-2.3-10.4-4.2-16.4-4.8c-14.7-1.5-29.9-1.3-44.7-2.2c-12.4-0.8-26.8-1.7-38.8,2.4c-2.7,0.9-3.6,3-5.6,4.9
			c-2.5,2.2-5.3,2.1-8.3,3c-6.7,2.1-12.3,6.5-19.1,8.5c-9,2.6-16.6,8.9-22,16c0.9,1,2,1.3,3.3,1c-3.5,2.3-2.6,0.2-5.3-1.5
			c-1.9-1.2-7.5,3.5-8.8,4.5c-5.6,4.4-9.3,10.7-15.1,14.7c-13,8.8-21.9,23.1-34.1,33.7c-6.6,5.7-7.5,10.7-12.1,17.7
			c-4.6,7.1-7.9,12.4-10.2,20.3c-1.1,3.7-5.5,4.4-6.8,8.1c-1.3,3.6-3,7.1-2.9,11c0,1.6-3.4,6.4-3.9,8.4
			C121.4,225.8,122.5,226.3,123.7,229.5C123.7,229.5,123.7,229.4,123.7,229.5z M461.6,152.4c-0.6,1-1.1,1-1.5-0.2
			C460.6,151,461.1,151.1,461.6,152.4C461.3,152.7,461.3,152,461.6,152.4z M145.7,235.1C146.6,236,145.3,236.4,145.7,235.1
			C145.9,235.3,145.6,235.4,145.7,235.1z M500.4,208.5C499.6,209.1,499.4,207.4,500.4,208.5C500.3,208.6,500.3,208.3,500.4,208.5z"
			/>
		<path fill-rule="evenodd" clip-rule="evenodd" fill="#FFFFFF" d="M468,253.6c-1.2-1.6-1.7-3.3-1.6-5.2c3.5,1.9,2.6,3.2,1.1,6
			c-1,1.9,5.4,9.9,6.3,11.9c2.6,5.7,7.3,10.9,9.1,16.8c1.1,3.7,3.2,10,6.9,11.8c3.9-13.8-10.9-27.3-13.5-39.6
			c4.2,2.1,14.5,26.8,16.6,26.3c3-0.7-0.6-24.9-1.1-28c-1.4-9-6.7-17.2-7.7-26.3c-1.6-13.8-15.4-28.4-25.2-37.1
			c-12.3-10.8-22.6-24.2-37-32c-15.2-8.2-31.7-13.1-47.5-19.7c-14-5.8-30.7-10.7-45.8-12.2c-17.8-1.8-38,5.3-54.2,12.1
			c-4.5,1.9-43.4,24-40.8,29.2c-0.3-0.7-23.2,15.3-22.5,22.2c4.1-0.8,15.8-6.5,18.9-9.6c2.2-2.2,3.6-1.3,6.3-1.9
			c2.7-0.6,3.5-2.9,5.8-4.1c8.5-4.3,18.5-9.5,28.2-13.7c12.8-5.5,29.1-1.9,43.1-1.7c16.9,0.3,33.4,5.5,49.4,10.3
			c14,4.2,27.5,11.7,38.9,20.2c5.1,3.8,11.4,7.2,16.9,10.8c2.4,1.5,5.7,6.4,8.9,6.5c2.4,0.1,7.6,9.8,10.2,11.1
			c3,1.5,9.4,9.2,9.9,12.5c0.3,1.8,14,22.6,16.2,22C466.8,251.6,465.1,250.2,468,253.6C467.5,252.2,467.5,253,468,253.6z
			 M475.5,251.8c-1.2,1.7-1.9-2-2.1-2.7C474.7,248.7,475.4,249.6,475.5,251.8C475.3,252.1,475,250.9,475.5,251.8z M459.8,235.2
			c1,0.8,1.2,1.4,0.4,2C459.1,236.7,459,236,459.8,235.2C460.2,235.9,459.5,235.9,459.8,235.2z M470.7,241.3
			C470.5,241.2,470.8,241,470.7,241.3C470.7,241.3,470.8,241.3,470.7,241.3z"/>
		<path fill-rule="evenodd" clip-rule="evenodd" fill="#FFFFFF" d="M324.1,197.8c8.6-1.2,16.4,2.9,25.2,2.5
			c6.1-0.3,16.9,8.8,22.5,4.6c-0.7-0.6-1.2-1.3-1.7-2.1c2.9-0.1,4.5,3,7,4.3c1.8,0.9,5.9,0.5,7.1,1.8c-0.1,1.1,0.1,2.1,0.7,3
			c1.6,1.1,3.1,2.2,4.6,3.4c3,2.6,6.3,2.2,9.2,4.2c5.1,3.5,9.4,11.6,13.3,16.6c5.1,6.5,9.8,13.5,14.8,19.9c4,5,22.5,41.2,26.1,39.7
			c8.1-3.3,16.2,39.2,17.1,44.6c0.7-1.7,1.9-2.8,3.5-3.3c1.5,4.6,1.5,9.6,3.5,14c3.8-2.8,12.1-12.6,8.8-17.7c-3.8-5.8-1.3,0.3,1-6.5
			c2.3-6.8-2.3-19-4.5-25.4c-1.7-5-7.1-9.4-7.8-14.4c0.8,0.1,1.6,0.2,2.4,0.4c-1.3-7.5-8.2-16.3-12-22.8
			c-5.5-9.4-11.9-18.3-18.1-27.2c-12.1-17.5-28.9-30.3-45.6-43c-17.4-13.2-38.9-22.6-60.1-27.3c-10.9-2.4-21.9-2.1-32.6-4
			c-5.5-1-18.7,0.1-22.6,4.5c1.4,1.2,3,0.7,4.7,1.4c-5.1,4-16.1,4-22.5,6.7c-5.6,2.4-8.9,9.5-10.4,14.9c3.1,0.7,12.4-12,15.7-13.4
			c-2.4,7-11.2,12.6-15,19c-5.8,9.7-15.1,16.8-19.9,27.4c-3.3,7.4,14-1.5,14.2-1.5c13.2,0.9,2.1-10.4,3.4-12.6
			c0,0.1,15-3.3,16.3-3.5c6.7-1.1,12.9-4.2,19.6-5.2c2.1-0.3,5.5-3.1,7.2-2.9c3.1,0.4,5.1,2,8.6,1.9c2.6,0,3.4-3.8,7-3.1
			C317.9,197.1,321,197.4,324.1,197.8C326.5,197.5,320.6,197.4,324.1,197.8z M482.8,312.8c-2.6,1.6-3.5,1-1.5-1.5
			C481.8,311.8,482.3,312.3,482.8,312.8C481.9,313.4,482.1,312.2,482.8,312.8z M443.6,268.5c-0.6,1.5-1,1.6-1.2,0.1
			C442.8,266.9,443.2,266.9,443.6,268.5C443.4,268.9,443.4,268,443.6,268.5z M470.5,278.3C470.1,279.2,469.5,277.5,470.5,278.3
			C470.4,278.5,470.4,278.2,470.5,278.3z M366.5,200.3C366,200.7,366,200,366.5,200.3C366.5,200.4,366.4,200.2,366.5,200.3z
			 M350.4,191.2C349.9,191.4,349.9,190.5,350.4,191.2C350.3,191.2,350.3,191.1,350.4,191.2z"/>
		<path fill-rule="evenodd" clip-rule="evenodd" fill="#FFFFFF" d="M151.6,357.6c0.9-1.9,0,10.7-0.7,13.3c-2.8,10.3-10.3,26.2-8,37
			c3.2-2.7,5.4-11,6.8-15c0.8-2.3,3.4-7.7,3.4-10c0.1-4.4,3.7-8.2,5.3-12.1c2.1-5.1,3.8-10.3,6.3-15.2c4.4-8.7,6.5-19.7,12.7-27.2
			c4.7-5.8,2.4-14.1,5.9-20c0.4,1.7,0.2,2.7,1.2,4.2c5.4-6.2,8.9-19.7,12.5-27.5c2.4-5.1,10-15.9,4.2-18.7
			c5.8-6.1,10.3-10.9,13.2-19.1c1.8-5.2-5.7-7.1,1.1-11.6c8.1-5.3,20.3-22.7,22.2-32.6c-4.6,2.7-8.2,7.4-12.3,10.7
			c-3.6,2.9-10.9,6.7-13,10.9c-1.9,3.8-8.6,4.4-6.1,2.4c2.1-1.7,3.2-3.8,5-5.5c2.6-2.5,5.5-6.2,8.3-9.5c1.8-2.1,8.8-6.8,9.6-9.4
			c1.8-6.1,11.2-6.9,13-13.1c-8.4-1.6-26.1,12.8-33,17.4c-6.1,4-26.9,16.9-26.3,24.7c8.3-4.3,0,10.5-2.1,13.5
			c-2.6,3.6-3.9,8.6-6.5,12.4c-1.5,2.2-4.8,11.2-6.8,11.7c-6,1.6-12.1,15.6-15.2,20.6c-2.6,4.1-3.4,4.9-2.7,8.8c0.7,4.3-2,0.3-3,0.1
			c-1.6-0.2-1.8,5.1-1.5,5.7c1.4,2.8-2.1,0.9-2.4,2c-0.4,1.4,0.8,2.4,0.3,3.7c-1.4,3.6-3.5,0.5-2.9,4c0.5,2.4-3.5,6.6-3.8,9.6
			c-0.5,5-3.5,10.2-4.5,15.2c-0.8,3.6-4.9,18.5-0.4,20.1c1,0.4,0.8-5.6,3.5,0.1c1.4,3.1,2.3,6.3,3.9,9.2
			c11.2-13.9,14.6-32.4,22.9-46.8c1.9,1.6,0.9,2.3-0.7,3.8c1.3,0.6,1.5,1.5,0.5,2.6c0.8-1,4.2-2.9,4.5-3.8c0.6-1.6-1.4-5.1-1.2-6.6
			c0.2-0.9,6.4-5.5,7.1-6.7c1.9-3.3,3.8-9,7.2-10.5c-2.9,11.4-11.2,20.3-15.4,30.9c-2.4,6.2-3.6,11.5-6.6,17.7
			c-1.1,2.3-3.6,2-5.1,4.5c0.3-0.2-5.9,2-3.1,4.4C149.8,357.1,150.6,357,151.6,357.6C151.7,357.4,150.6,357.1,151.6,357.6z
			 M200.6,263.3c0.1,2.7-7,12.6-9.1,13.2c0.3-1,8.3-14.5,7.9-14.7C200.4,261.9,200.8,262.4,200.6,263.3
			C200.7,265.9,200.6,263.4,200.6,263.3z M184.2,290.8c0.5,1.2-1.8,7.1-3.6,6.2C178.4,295.8,183.6,291.4,184.2,290.8
			C184.5,291.3,183.1,292,184.2,290.8z M203.1,256.9C200.6,266,199.2,255.9,203.1,256.9C202.8,258.1,203,256.9,203.1,256.9z
			 M190.6,278.1c0.4,1.6-0.7,2.8-1.4,4.2C188.6,280.7,188.4,278.7,190.6,278.1C190.6,278.4,188.9,278.6,190.6,278.1z M186.8,285.2
			c1.1,0.7,1.1,1.5,0,2.3C185.9,287,185.9,286.2,186.8,285.2C187.3,285.8,186.6,286.1,186.8,285.2z M204,254
			c1.2,0.7,1.2,1.2,0.1,1.5C203.2,255,203.1,254.5,204,254C204.4,254.5,203.7,254.3,204,254z M210.7,243.1c0.5,0.5,0.5,1.1-0.1,1.5
			C209.9,244.3,210,243.8,210.7,243.1C210.9,243.6,210.4,243.8,210.7,243.1z M162.6,279.3C162.1,278.2,164.4,278,162.6,279.3
			C162.5,279,163,279,162.6,279.3z M158.8,285.8C157.4,286.7,157.8,285,158.8,285.8C158.5,286,158.5,285.5,158.8,285.8z
			 M173.1,299.6C173.2,299.9,172.9,300.2,173.1,299.6C173.1,299.7,173,299.8,173.1,299.6z M207.2,251.1
			C206.3,251.6,207,250.1,207.2,251.1C207.1,251.2,207.2,251,207.2,251.1z M163.1,321.2C163.4,320.9,163.6,321.8,163.1,321.2
			C163.1,321.2,163.2,321.3,163.1,321.2z M152.6,355C152.6,355.6,152.1,354.8,152.6,355C152.6,355.1,152.6,355,152.6,355z
			 M168.8,311.6C168.7,311.9,168.4,311.4,168.8,311.6C168.8,311.6,168.8,311.5,168.8,311.6z M154.4,336.1
			C154.3,336.2,154.3,336.2,154.4,336.1L154.4,336.1z M198.8,237.2C198.8,237.1,198.9,237.1,198.8,237.2L198.8,237.2z"/>
		<path fill-rule="evenodd" clip-rule="evenodd" fill="#FFFFFF" d="M548,577.3c8.7,0.7,2.7-42.1,0.2-47.3
			c-7.8-16.5-21.1-27-36.4-36.1c-8.9-5.3-19.8-4.4-29.6-6c-2.5-0.4-15.2,3.5-9.1,6.3c6.5,3,16.6,2.7,23.7,4.9
			c8.1,2.5,15.5,6.8,21.9,12.2c14.9,12.4,19.5,25.8,21.6,44.8c1.6,14.8-2.8,39.8-15,50.1c-16.4,14-34,18.4-55,21
			c-1.5,0.2-5.7-2.8-7.5-3.4c-3.1-1-5.8-2.2-8.7-3.8c-2.3-1.4-16.1-7.9-9.9-11c-2.8-3-3.6-2.9-6-0.2c-2.7,3,6.2,8.6,8.1,10.3
			c1.5,1.2,12.3,5.3,12.3,5.5c-0.4,2.9,3.2,0.2,3.5,1.3c2,8.7,30.1,7.5,37.4,6.1c13-2.4,26.1-8.3,33.4-19.7
			c8-12.4,12.8-26.9,13-41.8c0-3.1-3.3-39.6-5.8-39.2C548.4,530.1,548.4,571.9,548,577.3C548.2,577.3,548.2,574.9,548,577.3z
			 M465.9,627.7c-1.3-0.6-1.4-1.2-0.3-1.7C466.6,626.3,466.7,626.9,465.9,627.7C465.3,627,466.2,627.2,465.9,627.7z M524.4,614.6
			C523.1,615.1,523.5,613.5,524.4,614.6C524.1,614.7,524.2,614.3,524.4,614.6z M522.5,616.3C522.2,616.6,522,615.7,522.5,616.3
			C522.5,616.4,522.5,616.3,522.5,616.3z M526.8,611.9C526.8,612.1,526.8,612.1,526.8,611.9L526.8,611.9z"/>
		<path fill-rule="evenodd" clip-rule="evenodd" fill="#FFFFFF" d="M59.1,557.6c-4.1-1.8-1-18.4,1-17.8c1.3,0.4-1.9,29.8,0.1,33.4
			c1.4-9.7,0.4-21,3.9-30.3c3.6-9.4,8.9-16,16-23.1c7-7,15.7-12.9,25.2-16.2c4.8-1.7,10.2-2,15.2-2.4c3.4-0.3,10.7,0.9,13.6-1.2
			c-0.1,0,1.5-6.3,1.6-6c-1.5-2.9-7.7-2.4-10.2-2.2c-4.1,0.3-17.6,2.4-19.9,5.8c-4.3,6.6-16,6.8-22.3,11.6
			c-4.8,3.7-9.7,11.6-15,13.9c-0.3-7.8,15.3-18.2,21.7-21.1c5.9-2.7,12.3-4,18-7.2c2.4-1.3,7.2-2.2,8.8-4
			c-7.5-3.9-20.8,4.9-27.3,8.3c-9.5,5-17.4,12.9-24.2,21.1c-6.3,7.8-10.1,17.3-10.7,27.3c-0.4,5.9-3,20,2,24.5
			C57.6,569.7,55.4,558.1,59.1,557.6C58.7,557.4,56.8,557.9,59.1,557.6z M127.7,495.7c0.2,0,0.4,0,0.6,0.1c-0.8-0.1-4.9,1.4-5.8,1.4
			C122.4,495.8,126.7,495.9,127.7,495.7C127.9,495.7,126,496,127.7,495.7z M64.4,527.4c1.2,2.6-1.4,8.2-3.4,10
			C60.6,532.6,61.6,531.5,64.4,527.4C65.1,528.9,63.3,529,64.4,527.4z M67.9,525.6c-0.5,0.6-1,1.1-1.4,1.7
			C65.5,526,66.4,524.7,67.9,525.6C67.4,526.3,67.4,525.3,67.9,525.6z M131,495.3C131.9,496.1,129.7,496.2,131,495.3
			C131.1,495.4,130.7,495.5,131,495.3z"/>
		<path fill-rule="evenodd" clip-rule="evenodd" fill="#FFFFFF" d="M122,639.5c-15.8-0.1-45.1-10.1-48.6-28.6
			c5.8,2.4,13.8,7.5,19.2,10.9c5.6,3.4,14.7,5.2,21,6.3c4.6,0.8,14,0.9,18.9,0.4c8.1-0.9,15.9-5.8,23.6-6.7
			C152.7,635.9,133.5,638.6,122,639.5C115.8,639.5,124.2,639.3,122,639.5z"/>
		<path fill-rule="evenodd" clip-rule="evenodd" fill="#FFFFFF" d="M382.6,230.3c-2.3-3.8-17.8,9.7-21.3,10.3
			c3.2,2.6,21.6,10.4,24.2,7.4c3.2-3.7,7.2,2.4,9.7,3c3.3,0.8,2.5-4.8,0.6-5.9C389.6,245.8,385.3,234.8,382.6,230.3z M383.6,244
			c-0.6,0.2-1.1,0.5-1.7,0.7C381.6,243.3,382.8,242.9,383.6,244C382.9,244.2,383.3,243.6,383.6,244z M382.1,241.2
			C380.6,242.3,381.7,240.1,382.1,241.2C381.9,241.3,382,241,382.1,241.2z"/>
		<path fill-rule="evenodd" clip-rule="evenodd" fill="#FFFFFF" d="M174.1,240.4c-2.5,5.9-0.2,6.7-4,11.5
			c-4.2,5.4-8.6,10.9-13.1,16.3c-5.4,6.4-9.2,13.7-13.8,20.7c-1.6,2.4-9.3,19.3-12.3,17.1c-2.5-1.9-2.7-14.1-0.3-13.6
			c2,0.4,5.6,4.9,7.2,1.4c2.1-4.6,4.2-9,6.7-13.3c4.2-7.2,10.7-13.3,15.2-20.5C164.1,253.6,167.6,244.8,174.1,240.4
			C173.3,242.4,173.8,240.7,174.1,240.4z"/>
		<path fill-rule="evenodd" clip-rule="evenodd" fill="#FFFFFF" d="M459.4,493.3c-0.2-2.2-2.6-9.5,1.2-10c4.1-0.5,0-6,1.5-8.5
			c0.9,0.7,4.1,11.7,3.9,11.8c-7.2,3.5,0.3,14.7,0.7,19.1c0.2,1.9-1.1,19.4-6.6,12.4C454.3,510.8,457.6,501.9,459.4,493.3
			C459.1,490.4,459.2,494,459.4,493.3z"/>
		<path fill-rule="evenodd" clip-rule="evenodd" fill="#FFFFFF" d="M175.8,610.7c-3.4,9.7-13.4,24.4-25.4,24
			c2-9.5,16.2-24.7,24.4-29.5C175.5,606.9,175.9,608.8,175.8,610.7C175.2,612.3,175.6,609.2,175.8,610.7z"/>
		<path fill-rule="evenodd" clip-rule="evenodd" fill="#FFFFFF" d="M91.1,617.3c-8.5-2.6-20.1-10.7-20.9-20.4
			c-0.5-5.3-2.8-1.2-3.8-4.2c-1.4-4.2-3.2-11.5-1.5-15.7c2.7,3.6,2.3,9.9,2.8,14.2c-0.1-0.8,4.3,4.8,4.2,4.5
			C73.7,598.6,90.8,617.7,91.1,617.3C87.9,616.4,91.2,617.2,91.1,617.3z"/>
		<path fill-rule="evenodd" clip-rule="evenodd" fill="#FFFFFF" d="M156.5,515c-0.5-1.9-1.4-11.6-5.2-8.9c-1.7,1.3-7,4-6.4,6.7
			C145.9,517.1,157.3,518.8,156.5,515C155.8,512.3,156.7,516,156.5,515z M153.7,514.3C153.8,514.1,154.2,514.1,153.7,514.3
			C153.8,514.2,153.8,514.3,153.7,514.3z"/>
		<path fill-rule="evenodd" clip-rule="evenodd" fill="#FFFFFF" d="M475.4,622.9c-8.3,0.1-23.4-4.1-28-12c3.9,0.3,8.2,3.8,12,5.1
			c5,1.7,15.2,2.8,18.9,6.4C477.5,623.1,476.5,623.3,475.4,622.9C469.9,623,476.2,622.9,475.4,622.9z"/>
		<path fill-rule="evenodd" clip-rule="evenodd" fill="#FFFFFF" d="M466.9,437.6c-0.4,5.4,0.4,14.7-3.8,18.9
			c-2.2-4.2-1-22.2,2.1-25.7C466,431.6,467,437.6,466.9,437.6C466.6,441.5,466.8,437.6,466.9,437.6z"/>
		<path fill-rule="evenodd" clip-rule="evenodd" fill="#FFFFFF" d="M480.7,364.2c0,3.3-7.8,17.5-7.8,13.6c0-3.2,1.1-11.2,4.6-12.8
			c3-1.4,2.1-5.2,4.5-7C482.7,360,481.3,362.3,480.7,364.2C480.7,366.5,480.9,363.4,480.7,364.2z"/>
		<path fill-rule="evenodd" clip-rule="evenodd" fill="#FFFFFF" d="M134.5,250.1c-0.7-0.3-1.2-2.6-1.3-2.9c-3.3,2.5-4.9,6.4-6.8,9.9
			c-0.2,0.3-4,10.7,0.8,7.2c1.7-1.2,1.6-5,3.3-6.8C132.4,255.4,133.3,252.8,134.5,250.1C134.3,250,133.6,251.9,134.5,250.1z
			 M125.5,262.7C125.4,262.8,125.4,262.8,125.5,262.7L125.5,262.7z"/>
		<path fill-rule="evenodd" clip-rule="evenodd" fill="#FFFFFF" d="M127.2,237.6c-1,3-1.4,6.3-4,8.3c-0.8-1.5-3.2-17.6-1.6-18
			c0.9,0.2,1.6,0.8,2.1,1.6C125,231.8,126.6,235,127.2,237.6z"/>
		<path fill-rule="evenodd" clip-rule="evenodd" fill="#FFFFFF" d="M122.3,360.2c0.8-1.4-3.9-12.9,3.5-11.4
			C126.7,349,127.9,374.7,122.3,360.2C123.2,358.6,122.7,361.3,122.3,360.2z"/>
		<path fill-rule="evenodd" clip-rule="evenodd" fill="#FFFFFF" d="M132.6,271.9c0.4-3.4,1.4-6.9,2.4-9.8c0.8-2.6,5.2-14.6,7-15.9
			c2-1.5,2.9,5.2,1.2,4.8c-2.1-0.5-3.1,5.2-3.5,6.2C137.7,261.4,136,266.5,132.6,271.9C132.7,270.6,133.7,270.2,132.6,271.9z"/>
		<path fill-rule="evenodd" clip-rule="evenodd" fill="#FFFFFF" d="M151.6,464.4c0.2,2.9,1.4,6.5-0.5,9c-0.6-2.3-5.7-15.4-3.7-16.8
			C151.4,453.6,151.5,464.4,151.6,464.4C151.7,466.3,151.7,464.3,151.6,464.4z"/>
		<path fill-rule="evenodd" clip-rule="evenodd" fill="#FFFFFF" d="M130.9,360.4c-5.5,6,5.2,12.7,6.3,11.5
			C139.2,369.8,132.2,361.9,130.9,360.4C130,361.4,131.6,361.2,130.9,360.4z M131.6,367c-1-0.5-1.2-1.2-0.5-2
			C132,365.6,132.2,366.2,131.6,367C131.1,366.5,131.7,366.5,131.6,367z"/>
		<path fill-rule="evenodd" clip-rule="evenodd" fill="#FFFFFF" d="M341.3,237.7c-2.5,0.8-7.7,3.1-10.2,2.2c2.6-3.1,6-5.2,10-6
			C347.6,232.4,342.4,239.9,341.3,237.7C340.2,238,341.4,237.9,341.3,237.7z"/>
		<path fill-rule="evenodd" clip-rule="evenodd" fill="#FFFFFF" d="M455.8,426.9c0.2,2.8-0.8,9.9,2.2,11.7c1.4,0.8,1.4,5.2,0.5,6.3
			C457.7,445.7,451.1,426.9,455.8,426.9C456,429.5,455.5,426.9,455.8,426.9z"/>
		<path fill-rule="evenodd" clip-rule="evenodd" fill="#FFFFFF" d="M128.2,337.3c2.7-0.9-0.4,8-2,9.3
			C125,344.8,124.6,336.6,128.2,337.3C129.6,336.9,126.7,337,128.2,337.3z"/>
		<path fill-rule="evenodd" clip-rule="evenodd" fill="#FFFFFF" d="M500.4,314.3c-0.4,2.9-0.2,5.2-2.4,7.3c-4-4-0.8-6.3,1.8-9.8
			C500.3,312.6,500.5,313.4,500.4,314.3C500.1,316,500.4,313.8,500.4,314.3z"/>
		<path fill-rule="evenodd" clip-rule="evenodd" fill="#FFFFFF" d="M164.3,385.7c8.8-10,3.1,3.5,0.5,1.7
			C164.6,386.8,164.5,386.3,164.3,385.7C165.3,384.6,164.6,386.6,164.3,385.7z"/>
		<path fill-rule="evenodd" clip-rule="evenodd" fill="#FFFFFF" d="M288.8,242.5c-2.6,0.7-6,2.5-8.4,0.7c1.8-2.1,8.8-2.4,10.7-0.9
			C290.5,242.7,289.1,243.5,288.8,242.5C287.7,242.8,288.8,242.6,288.8,242.5z"/>
		<path fill-rule="evenodd" clip-rule="evenodd" fill="#FFFFFF" d="M146.2,413.2c-0.1,0.2-2.5,8.5-3.1,8.2
			C141.4,420.7,142.6,411.9,146.2,413.2C145.2,416.1,145.7,413,146.2,413.2z"/>
		<path fill-rule="evenodd" clip-rule="evenodd" fill="#FFFFFF" d="M425.8,302.8c-2.7,2.9-3.4-2.2-5-4
			C423.2,298.6,426.2,299.8,425.8,302.8C425.7,302.9,426.2,299.8,425.8,302.8z"/>
		<path fill-rule="evenodd" clip-rule="evenodd" fill="#FFFFFF" d="M442.1,341c-0.3,0.5-0.5,1.1-0.8,1.6c-1.8-1.7-3.2-4.3-3.5-6.8
			C439.9,335.6,442,339.1,442.1,341C441.9,341.3,442,339.2,442.1,341z"/>
		<path fill-rule="evenodd" clip-rule="evenodd" fill="#FFFFFF" d="M425.1,293.4c-1,3.2-2.4,3.4-4.2,0.5
			C422.6,291.1,424,290.9,425.1,293.4C424.4,294.3,424.5,292.7,425.1,293.4z"/>
		<path fill-rule="evenodd" clip-rule="evenodd" fill="#FFFFFF" d="M125.2,291C125.4,297.7,117.5,293.5,125.2,291
			C125.2,292.4,124.6,291.2,125.2,291z"/>
		<path fill-rule="evenodd" clip-rule="evenodd" fill="#FFFFFF" d="M349,233.9c1-0.1,1.9,0,2.8,0.4c-2,1.7-4.1,2.2-6,0.1
			C346,234.2,349,232.9,349,233.9C349.4,233.9,349,233.8,349,233.9z"/>
		<path fill-rule="evenodd" clip-rule="evenodd" fill="#FFFFFF" d="M409.2,261.9c-4.4-3.4,1.8-3,2.1-2.5
			C411.3,260.7,410.6,261.6,409.2,261.9C408.7,261.5,409.9,261.5,409.2,261.9z"/>
		<path fill-rule="evenodd" clip-rule="evenodd" fill="#FFFFFF" d="M239.2,111.3c-1.8,0.8-5.1,2.9-7.1,2.5
			C233.2,111.8,237.3,109.2,239.2,111.3C238.9,111.4,238.8,110.9,239.2,111.3z"/>
		<path fill-rule="evenodd" clip-rule="evenodd" fill="#FFFFFF" d="M60,579.2c0.3,1.9,1.4,4.9,0.6,6.8
			C58.1,584.6,58.8,581.3,60,579.2C60.3,581.2,58.8,581.3,60,579.2z"/>
		<path fill-rule="evenodd" clip-rule="evenodd" fill="#FFFFFF" d="M320.1,248.5c-2.7,2.6-3.1,2.2-6.6,1.8
			C315.9,249.3,317.5,248.7,320.1,248.5z"/>
		<path fill-rule="evenodd" clip-rule="evenodd" fill="#FFFFFF" d="M453.6,351.4c0.3,0.8,0.2,1.5-0.4,2c-1.3,1.1-1.9-3.9-1.4-5.1
			C453.1,348.9,453.7,349.9,453.6,351.4C453.6,352.2,453.5,350.9,453.6,351.4z"/>
		<path fill-rule="evenodd" clip-rule="evenodd" fill="#FFFFFF" d="M523,258.8c-2.1,1.4-4.3,0.1-2.4-2.1
			C521.4,257.4,522.2,258.1,523,258.8C522.3,259.2,522,257.9,523,258.8z"/>
		<path fill-rule="evenodd" clip-rule="evenodd" fill="#FFFFFF" d="M238.6,386.5c1.7,1.8-1.5,3.1-3.1,1.9
			C236.4,387.6,237.5,386.9,238.6,386.5C238.8,386.7,237.8,386.9,238.6,386.5z"/>
		<path fill-rule="evenodd" clip-rule="evenodd" fill="#FFFFFF" d="M400.2,256.9c1.5,1,2.4,2.5,2,4.2
			C400.5,260.7,399.1,258.6,400.2,256.9C400.5,257,400.1,257.1,400.2,256.9z"/>
		<path fill-rule="evenodd" clip-rule="evenodd" fill="#FFFFFF" d="M151.5,490.9c-0.3,0.5-0.6,1-0.9,1.6c-1.4-1.2-1.5-2.4-0.3-3.8
			C150.7,489.4,151.1,490.1,151.5,490.9C151.1,491.5,151.1,490.1,151.5,490.9z"/>
		<path fill-rule="evenodd" clip-rule="evenodd" fill="#FFFFFF" d="M434.8,319.1c-3.3-6.4,3.1,5.2,0.7,3.6
			C433.8,321.9,433.6,320.7,434.8,319.1C435.4,320.3,434.4,320.2,434.8,319.1z"/>
		<path fill-rule="evenodd" clip-rule="evenodd" fill="#FFFFFF" d="M460.6,465.8c-1.2,2.4-3-2.4-1.9-4
			C459.9,462.6,460.6,464,460.6,465.8C460.4,466.2,460.1,464.6,460.6,465.8z"/>
		<path fill-rule="evenodd" clip-rule="evenodd" fill="#FFFFFF" d="M407,255.7c3.1,4.3-1.1,1.6-1.3,2.1
			C406.2,257.1,406.6,256.4,407,255.7C407.6,256.5,406.4,256.6,407,255.7z"/>
		<path fill-rule="evenodd" clip-rule="evenodd" fill="#FFFFFF" d="M311.4,235.7c1.8,0.9,1.3,1.8-1.7,2.7c-0.3-0.3-0.6-0.6-0.9-1
			C309.7,236.9,310.6,236.3,311.4,235.7C311.9,236.1,310.6,236.3,311.4,235.7z"/>
		<path fill-rule="evenodd" clip-rule="evenodd" fill="#FFFFFF" d="M458.2,456.1c-1.8,2.6-1.9-2.2-1.8-2.1
			C457.6,454.3,458.1,455,458.2,456.1C458,456.5,458.4,454.6,458.2,456.1z"/>
		<path fill-rule="evenodd" clip-rule="evenodd" fill="#FFFFFF" d="M130.2,233.4c1.2,1.4,1,2.3-0.5,2.9
			C127.4,236.8,131.2,232,130.2,233.4C130.6,234.4,129.5,234.3,130.2,233.4z"/>
		<path fill-rule="evenodd" clip-rule="evenodd" fill="#FFFFFF" d="M139.1,513.3c-2.6,1.8-1.5-3.1-1.2-2.4
			C138.3,511.7,138.7,512.5,139.1,513.3C138.9,513.5,138.6,512.5,139.1,513.3z"/>
		<path fill-rule="evenodd" clip-rule="evenodd" fill="#FFFFFF" d="M362.6,237.4c-1.5-1.4,0.6-2.4,1.9-1.6
			C363.9,236.3,363.3,236.8,362.6,237.4C362.3,237,363.3,236.8,362.6,237.4z"/>
		<path fill-rule="evenodd" clip-rule="evenodd" fill="#FFFFFF" d="M135.3,379.1c-1.8,0.3-3.9-1.9-2.8-3.6
			C133.5,376.7,134.4,377.9,135.3,379.1C135,379.1,134.3,377.8,135.3,379.1z"/>
		<path fill-rule="evenodd" clip-rule="evenodd" fill="#FFFFFF" d="M423,287.5c-0.7,1.5-1.4,1.5-2,0.1
			C421.6,286.4,422.3,286.4,423,287.5C422.5,288,422.5,287.1,423,287.5z"/>
		<path fill-rule="evenodd" clip-rule="evenodd" fill="#FFFFFF" d="M211.4,290.6c-1.2,1.7-2.7,2.4-4.4,2.1
			C208.1,291,208.7,291,211.4,290.6z"/>
		<path fill-rule="evenodd" clip-rule="evenodd" fill="#FFFFFF" d="M142.4,493.3c-0.9,1.5-1.8,1.6-2.6,0.4
			C139.2,492,142.9,493.5,142.4,493.3C141.7,493.9,141.5,493,142.4,493.3z"/>
		<path fill-rule="evenodd" clip-rule="evenodd" fill="#FFFFFF" d="M303.5,240.2c-0.8,1-1.6,1.1-2.4,0.2
			C301.8,239.1,302.6,239,303.5,240.2C302.8,240.6,302.9,239.7,303.5,240.2z"/>
		<path fill-rule="evenodd" clip-rule="evenodd" fill="#FFFFFF" d="M246.5,188.2c-1.6-2.3,1.6-1.7,1.7-1.8
			C247.6,187,247.1,187.6,246.5,188.2C246.1,187.7,247.2,187.5,246.5,188.2z"/>
		<path fill-rule="evenodd" clip-rule="evenodd" fill="#FFFFFF" d="M454.6,359.2c-1,0.7-2,0.6-2.8-0.6
			C452.8,357.8,453.7,358,454.6,359.2C453.9,359.4,453.8,358.7,454.6,359.2z"/>
		<path fill-rule="evenodd" clip-rule="evenodd" fill="#FFFFFF" d="M130.4,277.9c-0.9-1.2-0.7-2.2,0.4-3.1
			C131.7,275.8,131.5,276.8,130.4,277.9C130.1,277,130.9,276.9,130.4,277.9z"/>
		<path fill-rule="evenodd" clip-rule="evenodd" fill="#FFFFFF" d="M127.2,237.7c1.4,0.9,1.5,1.6,0,2.4
			C127.3,240.5,127,236.8,127.2,237.7z"/>
		<path fill-rule="evenodd" clip-rule="evenodd" fill="#FFFFFF" d="M146.2,240.5c0,0.1-2.1,4-1.9,2.5
			C144.4,242.2,146,240.8,146.2,240.5z"/>
		<path fill-rule="evenodd" clip-rule="evenodd" fill="#FFFFFF" d="M238.4,227.3c-1.1,1.1-1.9,1.2-2.4,0.2
			C236.9,226.4,237.7,226.4,238.4,227.3C237.5,227.7,237.9,226.9,238.4,227.3z"/>
		<path fill-rule="evenodd" clip-rule="evenodd" fill="#FFFFFF" d="M149.8,359c1.3,1,1.5,2,0.4,2.9C149.2,361.2,149,360.3,149.8,359
			C150.3,360,149.6,360.1,149.8,359z"/>
		<path fill-rule="evenodd" clip-rule="evenodd" fill="#FFFFFF" d="M436.3,325.5c0.9,0.5,1,1.2,0.5,2
			C436,327,435.9,326.3,436.3,325.5C436.8,326,436.2,326.2,436.3,325.5z"/>
		<path fill-rule="evenodd" clip-rule="evenodd" fill="#FFFFFF" d="M135.7,322.6c-0.7,0.9-1.1,0.9-1.4,0
			C134.9,321.3,135.4,321.3,135.7,322.6C135.3,322.9,135.5,322.2,135.7,322.6z"/>
		<path fill-rule="evenodd" clip-rule="evenodd" fill="#FFFFFF" d="M436,311.9c0.3,0.6,0.5,1.1,0.8,1.7
			C435.6,313.8,436.5,313.7,436,311.9z"/>
		<path fill-rule="evenodd" clip-rule="evenodd" fill="#FFFFFF" d="M449,363.8c-1.2-0.6-1.5-1.2-0.8-1.7
			C449.5,362.7,449.8,363.3,449,363.8C448.7,363.3,449.1,363.7,449,363.8z"/>
		<path fill-rule="evenodd" clip-rule="evenodd" fill="#FFFFFF" d="M467,358.2c-0.5-0.7-0.6-1.4-0.2-2.1
			C467.5,356.7,467.6,357.4,467,358.2C466.8,357.5,467.3,357.5,467,358.2z"/>
		<path fill-rule="evenodd" clip-rule="evenodd" fill="#FFFFFF" d="M120.6,290.1c-0.6,0.8-1,0.8-1.3,0.1
			C119.7,289.3,120.2,289.3,120.6,290.1C120.2,290.4,120.3,289.8,120.6,290.1z"/>
		<path fill-rule="evenodd" clip-rule="evenodd" fill="#FFFFFF" d="M244.1,250.8c-0.5,0.2-1,0.2-1.5,0.1
			C243,250.6,244,249.9,244.1,250.8C243.9,250.8,244.1,250.7,244.1,250.8z"/>
		<path fill-rule="evenodd" clip-rule="evenodd" fill="#FFFFFF" d="M306.8,239C305.5,238.1,307.8,237.9,306.8,239
			C306.6,238.9,307,238.9,306.8,239z"/>
		<path fill-rule="evenodd" clip-rule="evenodd" fill="#FFFFFF" d="M431.2,306.7C432.3,307.7,430.1,308.4,431.2,306.7
			C431.4,306.9,431,307,431.2,306.7z"/>
		<path fill-rule="evenodd" clip-rule="evenodd" fill="#FFFFFF" d="M267.4,701C266.4,700.1,268.2,700,267.4,701
			C267.2,700.8,267.6,700.8,267.4,701z"/>
		<path fill-rule="evenodd" clip-rule="evenodd" fill="#FFFFFF" d="M436.4,323.8C436.9,324.6,434.7,325.6,436.4,323.8
			C436.5,324,436,324.1,436.4,323.8z"/>
		<path fill-rule="evenodd" clip-rule="evenodd" fill="#FFFFFF" d="M252.8,193.4c-0.6,0.7-1,0.6-1.2-0.1
			C252,192.7,252.4,192.7,252.8,193.4C252.4,193.6,252.4,193.1,252.8,193.4z"/>
		<path fill-rule="evenodd" clip-rule="evenodd" fill="#FFFFFF" d="M396,245c-0.2-0.5-0.4-1-0.6-1.4C396,243.5,396,245.1,396,245z"
			/>
		<path fill-rule="evenodd" clip-rule="evenodd" fill="#FFFFFF" d="M191.4,307c-0.8-0.3-0.8-0.8,0-1.5
			C192,305.8,192.1,306.3,191.4,307C191.1,306.8,191.5,306.5,191.4,307z"/>
		<path fill-rule="evenodd" clip-rule="evenodd" fill="#FFFFFF" d="M69.2,596.4C68.1,597,68.2,595.6,69.2,596.4
			C68.9,596.6,68.9,596.2,69.2,596.4z"/>
		<path fill-rule="evenodd" clip-rule="evenodd" fill="#FFFFFF" d="M210.6,190.8C209.2,191.2,210.1,190,210.6,190.8
			C210.4,190.9,210.5,190.7,210.6,190.8z"/>
		<path fill-rule="evenodd" clip-rule="evenodd" fill="#FFFFFF" d="M317.7,234.5C317,233.9,318.6,234.1,317.7,234.5
			C317.6,234.4,317.8,234.4,317.7,234.5z"/>
		<path fill-rule="evenodd" clip-rule="evenodd" fill="#FFFFFF" d="M419.8,633.6C419.2,633.4,420.2,633.1,419.8,633.6
			C419.8,633.6,419.9,633.5,419.8,633.6z"/>
		<path fill-rule="evenodd" clip-rule="evenodd" fill="#FFFFFF" d="M439.1,328.1C439.6,329,438.2,328.7,439.1,328.1
			C439.2,328.3,439,328.2,439.1,328.1z"/>
		<path fill-rule="evenodd" clip-rule="evenodd" fill="#FFFFFF" d="M59.7,575.8C59.9,574.7,60.2,574.4,59.7,575.8
			C59.8,575.5,59.7,575.8,59.7,575.8z"/>
		<path fill-rule="evenodd" clip-rule="evenodd" fill="#FFFFFF" d="M65.7,604.3C65.4,605.4,65.2,603.2,65.7,604.3
			C65.7,604.4,65.7,604.2,65.7,604.3z"/>
		<path fill-rule="evenodd" clip-rule="evenodd" fill="#FFFFFF" d="M228.7,274.9C227.6,275.5,228.1,274.2,228.7,274.9
			C228.5,275,228.6,274.8,228.7,274.9z"/>
		<path fill-rule="evenodd" clip-rule="evenodd" fill="#FFFFFF" d="M210.5,267.2C210.1,266.6,211.3,266.8,210.5,267.2
			C210.4,267.1,210.6,267.1,210.5,267.2z"/>
		<path fill-rule="evenodd" clip-rule="evenodd" fill="#FFFFFF" d="M457.7,477.1C457,477.4,457.3,476.3,457.7,477.1
			C457.6,477.1,457.7,476.9,457.7,477.1z"/>
		<path fill-rule="evenodd" clip-rule="evenodd" fill="#FFFFFF" d="M245.7,262C244.9,262.3,245.3,261.3,245.7,262
			C245.6,262,245.7,261.9,245.7,262z"/>
		<path fill-rule="evenodd" clip-rule="evenodd" fill="#FFFFFF" d="M151.6,475.4C150.8,476.3,150.6,474.9,151.6,475.4
			C151.4,475.6,151.4,475.3,151.6,475.4z"/>
		<path fill-rule="evenodd" clip-rule="evenodd" fill="#FFFFFF" d="M398.1,253.4C398.8,252.6,399.3,252.4,398.1,253.4
			C398.3,253.2,398.1,253.4,398.1,253.4z"/>
		<path fill-rule="evenodd" clip-rule="evenodd" fill="#FFFFFF" d="M505.6,252.3C505,251.1,506.5,251.9,505.6,252.3
			C505.5,252.1,505.8,252.2,505.6,252.3z"/>
		<path fill-rule="evenodd" clip-rule="evenodd" fill="#FFFFFF" d="M144.2,245.5C143.4,245.9,143.8,244.7,144.2,245.5
			C144.1,245.5,144.1,245.4,144.2,245.5z"/>
		<path fill-rule="evenodd" clip-rule="evenodd" fill="#FFFFFF" d="M213.9,190.6C213,191,213.5,189.8,213.9,190.6
			C213.7,190.6,213.8,190.4,213.9,190.6z"/>
		<path fill-rule="evenodd" clip-rule="evenodd" fill="#FFFFFF" d="M228.3,269.7C227.9,269.9,228.1,269.4,228.3,269.7
			C228.2,269.7,228.3,269.6,228.3,269.7z"/>
		<path fill-rule="evenodd" clip-rule="evenodd" fill="#FFFFFF" d="M462.7,337.8C462.1,337,463.5,337.1,462.7,337.8
			C462.6,337.7,462.8,337.7,462.7,337.8z"/>
		<path fill-rule="evenodd" clip-rule="evenodd" fill="#FFFFFF" d="M446.6,345.4C446,344.6,447.4,345,446.6,345.4
			C446.5,345.3,446.7,345.4,446.6,345.4z"/>
		<path fill-rule="evenodd" clip-rule="evenodd" fill="#FFFFFF" d="M437.3,329.5C436.8,329.7,437.2,328.9,437.3,329.5
			C437.2,329.5,437.3,329.4,437.3,329.5z"/>
		<path fill-rule="evenodd" clip-rule="evenodd" fill="#FFFFFF" d="M439.6,322C440.4,322.4,439.1,322.7,439.6,322
			C439.7,322,439.5,322.1,439.6,322z"/>
		<path fill-rule="evenodd" clip-rule="evenodd" fill="#FFFFFF" d="M422.7,628.7C422.8,628.4,423,628.9,422.7,628.7
			C422.7,628.7,422.7,628.8,422.7,628.7z"/>
		<path fill-rule="evenodd" clip-rule="evenodd" fill="#FFFFFF" d="M148.6,635.1C148.3,635.9,147.9,634.8,148.6,635.1
			C148.6,635.2,148.5,635,148.6,635.1z"/>
		<path fill-rule="evenodd" clip-rule="evenodd" fill="#FFFFFF" d="M325.5,234.1C325.3,234.4,325.1,233.9,325.5,234.1
			C325.5,234.1,325.4,234.1,325.5,234.1z"/>
		<path fill-rule="evenodd" clip-rule="evenodd" fill="#FFFFFF" d="M147.7,370.1C147.5,370.2,147.5,370.2,147.7,370.1L147.7,370.1z"
			/>
		<path fill-rule="evenodd" clip-rule="evenodd" fill="#FFFFFF" d="M423.1,289.3C422.9,288.9,423.6,289.1,423.1,289.3
			C423.1,289.2,423.2,289.3,423.1,289.3z"/>
		<path fill-rule="evenodd" clip-rule="evenodd" fill="#FFFFFF" d="M128.7,336C128.3,336,128.2,335.7,128.7,336
			C128.5,336,128.5,335.9,128.7,336z"/>
		<path fill-rule="evenodd" clip-rule="evenodd" fill="#FFFFFF" d="M161.7,328.2c0,0.2,0.1,0.4,0.1,0.6
			C161.7,328.5,161.7,328.5,161.7,328.2z"/>
		<path fill-rule="evenodd" clip-rule="evenodd" fill="#FFFFFF" d="M136,319.4C136.1,319.8,135.6,319.6,136,319.4
			C136,319.5,136,319.4,136,319.4z"/>
		<path fill-rule="evenodd" clip-rule="evenodd" fill="#FFFFFF" d="M175.3,238.5C175.2,238.7,174.8,238.7,175.3,238.5
			C175.2,238.6,175.2,238.5,175.3,238.5z"/>
		<path fill-rule="evenodd" clip-rule="evenodd" fill="#FFFFFF" d="M145.9,364.3C145.7,364.6,145.5,364.1,145.9,364.3
			C145.8,364.3,145.8,364.2,145.9,364.3z"/>
		<path fill-rule="evenodd" clip-rule="evenodd" fill="#FFFFFF" d="M150.9,483.1C150.7,482.5,151.4,482.6,150.9,483.1
			C150.9,483,151,483,150.9,483.1z"/>
		<path fill-rule="evenodd" clip-rule="evenodd" fill="#FFFFFF" d="M154.4,345C153.9,345,154.6,344.5,154.4,345
			C154.3,345,154.4,344.9,154.4,345z"/>
		<path fill-rule="evenodd" clip-rule="evenodd" fill="#FFFFFF" d="M473.6,500.8C473.9,501.4,473.1,500.8,473.6,500.8
			C473.6,500.9,473.5,500.8,473.6,500.8z"/>
		<path fill-rule="evenodd" clip-rule="evenodd" fill="#FFFFFF" d="M157.5,335.3C157.3,335.6,157.1,335.1,157.5,335.3
			C157.5,335.4,157.4,335.3,157.5,335.3z"/>
		<path fill-rule="evenodd" clip-rule="evenodd" fill="#FFFFFF" d="M398.1,253.4C398.1,253.4,398.1,253.4,398.1,253.4
			C398.1,253.4,398.1,253.4,398.1,253.4z"/>
		<path fill-rule="evenodd" clip-rule="evenodd" fill="#FFFFFF" d="M328,233.5C327.9,233.3,327.9,233.4,328,233.5L328,233.5z"/>
		<path fill-rule="evenodd" clip-rule="evenodd" fill="#FFFFFF" d="M149.1,358.1c0.1,0,0.1,0,0.2,0
			C149.2,358.2,149.1,358.2,149.1,358.1z"/>
		<path fill-rule="evenodd" clip-rule="evenodd" fill="#FFFFFF" d="M59.7,575.8C59.8,576.3,59.7,575.9,59.7,575.8L59.7,575.8z"/>
		<path fill-rule="evenodd" clip-rule="evenodd" fill="#FFFFFF" d="M436,311.9C436.2,311.4,436,312,436,311.9L436,311.9z"/>
		<path fill-rule="evenodd" clip-rule="evenodd" d="M369.6,626.3c1.2-3.6,9.2-4.7,9.3-8.7c0.1-4.7-4.5-3.1-6.6-2
			c-4.6,2.5-5.8,3.3-10.6,0.4c-9.1-5.3-16.6-14.4-26.9-17.2c-4.3-1.2-11.3,3.9-15.1,5.5c-2.4,1-8,6.6-10.6,5.2
			c-4.3-2.3-8.6-5.1-13.1-7.1c-5.7-2.6-4.1,0.6-7.9,0.4c-5-0.3-13.1,4.5-17.1,7.1c-4.5,3-9.6,6.7-14.6,8.7
			c-6.2,2.5-7.3-2.6-12.1-4.2c-2.4-0.8-9-1.2-7.7,3.3c1.1,3.8,6.7,4.8,8.6,8.1c-0.8-0.5-1.6-0.7-2.5-0.4c1.3,2,10.5,3.4,10.5,3.7
			c0,6.2-1.1,6.8,4.8,13c4.6,4.8,8.6,10.3,13,15.3c9.8,11.4,16.2,23.8,33,25.5c12.5,1.3,27-2.2,34.3-11.5
			c5.5-6.9,10.3-14.3,14.9-21.7c1.2-2,6.3-7.6,2.7-9.9c-2.2-1.5-4.2,1.7-5.2,3c-9.1,12.9-20,34.9-38.9,33.2
			c-16.5-1.4-25-9.2-35.2-21.6c-4.4-5.3-11-10.4-9.2-17.6c1.9-7.6,5.2-1.3,10.3-0.3c5.4,1,13.1,7.4,18.7,9.6
			c-0.8-0.3,8.2,4.2,6.4,0.1c-0.1-0.1-2-2-1.7-2.5c0.6-1.1,7.6,0.7,8.7,0.7c3.9-0.1,7.7-2.3,11.2-3.7c0.9-0.4,6.9-3.5,8.4-2.3
			c2.6,2.1,2.6-1.1,4.4-2c4.8-2.6,14.3-3.2,19.7-3c2.6,0.1,4.4,2.1,7,0.8c1.5-0.8,3-4.1,5.1-3.3
			C369.8,630.8,368.6,629.1,369.6,626.3z M258,629.9c5.6,2.8,6.1,4.1,6.8,9.9C262.8,639.8,255.1,631.2,258,629.9
			C260.2,631,257.6,630.1,258,629.9z M350.3,621.4c-2.2-0.4-1.6,0.1-2-3.2c0.9,0,4-0.1,4.7,0.5c0.3,0.3,5.9,4.6,4.2,5.3
			c-1.5,0.9-3.1,1.3-4.9,1.2C350.6,623.6,354.6,620.8,350.3,621.4C349.8,621.3,352.4,621.1,350.3,621.4z M334.3,616.1
			c0.2-2.1-0.4-6.4,1.6-7.9c0.1-0.1,2.4-1.7,2.6-0.3C338.9,609.8,337.1,620,334.3,616.1C334.6,613.5,334.4,616.2,334.3,616.1z
			 M317.4,624.7c-0.2,0.6-0.5,1.2-0.7,1.8c-0.6-1.9-1.5-3.6-0.5-5.5C317.4,621.9,317.8,623.1,317.4,624.7
			C317.3,625.1,317.3,623.5,317.4,624.7z M316.9,633.6c0.5-0.8,1-1.6,1.5-2.4c1.3,1.4,1.2,2.6-0.3,3.6
			C317.7,634.4,317.3,634,316.9,633.6C317.5,632.7,317.4,634.1,316.9,633.6z M300.5,622.6c-1.7,2.1-1.7-0.3-0.9-1.4
			C299.9,621.7,300.2,622.2,300.5,622.6C300.1,623.1,300.2,622.1,300.5,622.6z M295.8,631.2c-1.5-2.2-1.5-3.3-0.1-3.4
			C297.3,630,297.3,631.1,295.8,631.2C295.6,630.2,296,631.2,295.8,631.2z M287.9,628.1c-0.6,0.9-0.9,0.7-1-0.3
			C287.2,626.8,287.5,626.9,287.9,628.1C287.6,628.3,287.6,627.7,287.9,628.1z M300,643.4C299.5,644.2,299.1,642.9,300,643.4
			C299.9,643.5,299.9,643.3,300,643.4z M316.7,617.6C316,618.3,316,616.8,316.7,617.6C316.6,617.7,316.6,617.5,316.7,617.6z
			 M322.8,618.3C321.9,619.2,321.7,617.7,322.8,618.3C322.6,618.5,322.5,618.2,322.8,618.3z M324.5,623.2
			C324.3,623.5,324,622.7,324.5,623.2C324.5,623.3,324.5,623.2,324.5,623.2z M350.6,625.4C351,625.9,350.1,626.1,350.6,625.4
			C350.7,625.5,350.5,625.5,350.6,625.4z M342.3,626.4C341.9,626.6,342.2,626,342.3,626.4C342.2,626.5,342.3,626.4,342.3,626.4z
			 M322.2,616.3C322,616.3,322,616.3,322.2,616.3L322.2,616.3z"/>
		<path fill-rule="evenodd" clip-rule="evenodd" d="M359.9,437c-1.1,1.4-15.7,15.8-7.9,14.4c-0.2,0,9-5.3,8.5-4.1
			c2.3-6.5,12.1-12,18.1-14.1c4.2-1.5,9.8-6.3,14.1-6c-1,3.5-10.3,7.4-13.6,9.5c-6.4,4.1-12.6,7.2-17.2,13.7
			c-2.7,3.7-9.7,9.6-13.9,11.7c-3.9,2-7.3,5-1,7c3.4,1.1,10.2,0.5,13-1.8c4.4-3.7,4.7-9.8,9.6-13.3c0.6-0.4,10.5,10.3,9.3,12.3
			c-1.2,2-12.5,0.4-15,1.1c0.7,1.8,0.6,7.9,1.8,8.5c3.7,1.8,8.4,2,12.4,2.6c0.8,0.1,23,5.4,20.2,0c-0.7-1.3,15.9-7.3,18.4-9.1
			c2.7-1.9,6.8-2.8,8-6c1.5-3.8,4.5-3,6.4-5.7c2.3-3.3-1.3-8,2.7-11.5c0.5-0.5,8-3.1,3.6-4.5c-2.5-0.8,2.9-12.1-6.1-13.3
			c-3.6-0.5-6.9,3.8-10.4,4.2c-3.6,0.4-6.8-3.6-9.1-5.7c-0.9-0.8-0.5-5.6,1.4-4.7c2.9,1.4,7.6,4.6,10.8,3.8
			c-9.2-10.6-28.7-9.7-39.8-3.7c-7.4,4-13.6,7.8-21.8,9.8C359.1,433.1,353.6,435.9,359.9,437C358.5,438.8,359.7,437,359.9,437z
			 M408.7,466c-7.9,2.5-12.5-2.2-3.5-6.9c0.1,2.3-1.4,4-1.2,6.4c11.2-1.2,4.6-18.2,4.6-24.4c6.7,0.5,3.2,1.6,7.9,3.3
			c4.4,1.5,1.3,5.2,1.1,8.1c-0.3,5.8-1.9,5.5-5.9,9.4C409.3,464.4,413.8,466.3,408.7,466C408.5,466.1,411.8,466.2,408.7,466z
			 M408.3,433.3c-2.6,0.4-3.9-0.3-3.8-2.3c1.2-1.1,9.3-2.6,8.3,1.1C411.5,433.1,410,433.5,408.3,433.3
			C407.4,433,409.7,433.1,408.3,433.3z M382.8,473.3c2.9-0.1,3.6,2.5,5,4.6C385.3,478.1,379.5,475.9,382.8,473.3
			C385.1,473.2,382.6,473.4,382.8,473.3z M404.9,425.3c-3.3,0.3-7.4,1.4-10.7,0.6C395.6,425,404.8,422.5,404.9,425.3
			C401.8,425.6,404.9,425.2,404.9,425.3z M378.3,477.2c-2.1,0.3-5.1-1-6.5-2.7C373.7,472.9,377.6,474.8,378.3,477.2
			C377.8,477.2,378.1,476.7,378.3,477.2z M392.9,477.4c0.3,0.7,0.2,2.1-1,0.8C391.9,477.5,392.3,477.2,392.9,477.4
			C393.1,477.7,392.7,477.4,392.9,477.4z M397.8,431.2C397.4,431.4,397.6,430.7,397.8,431.2C397.7,431.2,397.8,431.1,397.8,431.2z"
			/>
		<path fill-rule="evenodd" clip-rule="evenodd" d="M246.8,470.5c-0.2-0.5-4.5,0-5.4,0c3-4.4,8.2-6.6,10.4-11.9
			c1.9-4.4,2-7.2,5.2-1.5c1.6,2.9,6.1,16.9,10.6,15.7c2.9-0.8,10,4,11.6,0c1.2-3-12-19-15.5-20.3c-3.8-1.5-8.7-6.9-12.5-9.2
			c-5.8-3.5-12.7-5.4-19-7.7c-9.8-3.6-26-3.7-35.4,1.5c-3.9,2.2-12.3,3.4-15.1-1.1c-3.2-5.2-5.1-2.6-5.8,1.1
			c-1,6.1,2.6,7.7,6.9,12.5c3.6,4,6.5,8.1,9.5,12.6c2.5,3.7,2.8,7.6,6.7,11.1c1.3,1.2,8.6,5.1,9.8,5.1c-0.3-0.6-0.5-1.3-0.6-1.9
			c7.8,0.5,16.5,6,24.5,7.7c9.8,2.1,18.3-0.8,27.8-5c-3.4-3.5-2.9-2.5-7.3-3.4c-2.2-0.5-9.5-1.5-10.9-2.6
			C243.5,472,245,471,246.8,470.5C246.7,470.4,245.5,471.2,246.8,470.5z M224.3,471c-7.1-1.4-14.5-1.3-19.1-7.7
			c-2.4-3.3-7.3-15.1,0-17.1c8.6-2.3,5.7,6.3,9,12.5C215.2,460.6,224.7,469.9,224.3,471C221.6,470.5,224.3,470.9,224.3,471z
			 M235.9,476.4c3.3,0,6.8-0.4,9.9,0.7C244.4,478.3,235.6,479.5,235.9,476.4C237.6,476.4,235.9,476.6,235.9,476.4z"/>
		<path fill-rule="evenodd" clip-rule="evenodd" d="M355.3,545.2c-1.1-8.9-4.1-14.3-8.6-21.9c-2.1-3.6-9.3-13-5.5-2.6
			c2.8,7.5,7,11.7,7.8,20.1c0.4,4.6-0.9,12.4-7.3,11.3c5.8-8.2-5.3-8.3-10.7-4.5c-6,4.3-9.8,11.5-19,10.6
			c-4.4-0.4-10.9-0.4-13.6-4.8c-1.5-2.5-5-5.9-7.6-7.1c-5.6-2.6-12.8,0.5-12.6,6.8c-14.7-5.5,3-24.5,6.6-32.9
			c4.6-10.6-5.8,1.1-6.3,1.2c-4.5,0.5-4,8.8-9.5,9.6c2.3,5.7-6.2,9.5-6,14.9c0.1,4.7,7.3,11.3,11.3,13.3c4.3,2.1,5.7,3,10.5,2.2
			c2.5-0.4,2.9-0.1,3.1,2.5c0.4,6.6,6.4,12,10.7,16.3c13.6,13.4,35.7,0.7,38.8-15.1c2.2-11,1.6-2.9,9.4-5.5
			C352.3,558,353.8,549.9,355.3,545.2C354.5,538.9,354.7,547,355.3,545.2z M311,570.3c-3.1,0-6.2,0.3-8.2-2.6
			c-1.1-1.6-2.4-4.7,0.8-4.3c8,1.1,12.7,0.3,20.3-1.8C323.7,568.2,317.1,570.8,311,570.3C309.8,570.3,315,570.6,311,570.3z
			 M315.4,576.5c5-1.9,8.8-4.1,13.3-6.5C329.4,576.1,319.1,575.9,315.4,576.5C318.8,575.2,318.3,576.1,315.4,576.5z M287.5,557.9
			c-7.2,0.9-3.8-3.5-3.5-3.5C292,555.7,286.9,557,287.5,557.9C286.4,558,287.6,558,287.5,557.9z M302.1,574.6c1,0.3,5.7,1.1,6.5,2
			C307.4,577.6,300,575.1,302.1,574.6C304.4,575.2,302.1,574.6,302.1,574.6z M340.6,554.7c-0.9,1-1.7,1.2-2.4,0.5
			C339,554.1,339.8,553.9,340.6,554.7C339.8,555.1,340.1,554.4,340.6,554.7z M294.9,565.5c-0.7,0.3-1.1-0.1-1.1-1.1
			C294.5,564,294.8,564.3,294.9,565.5C294.6,565.5,294.6,565,294.9,565.5z M312.4,576.8C312.4,576.5,312.8,576.8,312.4,576.8
			C312.4,576.8,312.4,576.8,312.4,576.8z M296.5,569.3C296.5,569.5,296.5,569.5,296.5,569.3L296.5,569.3z M281.6,554
			C281.7,554.3,281.4,554.5,281.6,554C281.6,554.1,281.5,554.1,281.6,554z"/>
		<path fill-rule="evenodd" clip-rule="evenodd" d="M386,391.8c-1.5-6.6,4.4-2.1,5.6-4.3c2.8-5.1,3,0.4,7.2-1.6
			c-7.8-3.5,12-8.1,15.5-8.7c7.4-1.4,15.7,7.2,20.5,12.3c0-3-2.6-5.5-1.7-8c1.7-4.5-4.1-7.7-5.2-11.5c-1.1-4-19.4-2.2-22.7-1.4
			c-3,0.7-18.4,8-20.9,3.9c0.9,1.5-7.2,2.6-9.2,2.3c-3.6-0.6-3.9-0.9-6.2,1.8c-3.7,4.4-0.7,1.4-6.2,4.2c-3,1.6-4.7,0.7-8.1,2.6
			c1-0.6-6,4.8-5.5,4.7c-3.4,1-4.3-0.8-5.2,3.9c-0.5,3-4.7,7.8-1.7,10.2c4.1,3.3,7,8.1,10.5,11.8c1.1-1.7,4.1-7.7,6.5-5
			c3.1,3.6,2.4-5,2.6-5.3c1.8-4.5,4.9,1.9,5.9-1c0.3-0.9-0.5-4.4,1.3-4.4c2.6-0.1,3.7,6.2,6.8,0.1c-0.5-0.1-4,0.8-4.2,0.6
			c-3.1-3.7,6.3-3.6,7-4.5C380.2,392.2,382.1,388.3,386,391.8C385.8,391.1,383.9,389.9,386,391.8z M357.8,385.3
			c0,0.9-0.4,1.7-1.1,2.3C355.8,386,357.1,383,357.8,385.3C357.7,385.6,357.7,385,357.8,385.3z M363.1,382.9
			C362.1,383.8,362.4,382.1,363.1,382.9C363,383,363,382.7,363.1,382.9z M373.4,377.6C372.7,377.7,373.2,377,373.4,377.6
			C373.3,377.6,373.3,377.5,373.4,377.6z"/>
		<path fill-rule="evenodd" clip-rule="evenodd" d="M207.6,422.5c12.6-1.2,27.9,2.6,39.7,7c7,2.6,16.6,10,16,17.3
			c-7.9-1.9-13.2-9.9-20.8-12.8c-7.8-3-24.5-7.4-32.7-5.9c-1.7,0.3-21.8,12.5-20.2,4.4C190.5,427.6,207.2,420.9,207.6,422.5
			C208.9,422.3,207.5,422.3,207.6,422.5z"/>
		<path fill-rule="evenodd" clip-rule="evenodd" d="M394.6,609.4c-0.3,2.3,0.1,7.2-2.3,8.6c-1.8-7.5-3-11.7-7.6-18
			c-1.6-2.1-2.8-8.4,1.7-7.7C393.3,593.5,394.6,604,394.6,609.4C394.3,611.6,394.6,604.6,394.6,609.4z"/>
		<path fill-rule="evenodd" clip-rule="evenodd" d="M189.7,356.6c-1.7,2.3-13.5,15.9-16.3,13C171.4,367.6,187.9,355.2,189.7,356.6
			C189.3,357,189.4,356.3,189.7,356.6z"/>
		<path fill-rule="evenodd" clip-rule="evenodd" d="M238.6,632.3c-4.7-3.9,4.9-2.2,4-1.7C241.2,631.2,239.9,631.7,238.6,632.3
			C238,631.8,240.1,631.6,238.6,632.3z"/>
		<path fill-rule="evenodd" clip-rule="evenodd" d="M388.4,393.1c-0.5-0.5-0.9-1-1.4-1.5c-6.3,3.7,4.7-3,3.1-0.8
			C389.6,391.6,389,392.3,388.4,393.1C387.8,392.4,389.1,392.2,388.4,393.1z"/>
		<path fill-rule="evenodd" clip-rule="evenodd" d="M254,464.2c-1.2-1.3-0.9-2.4,0.9-3.4C256.1,461.8,255.8,463,254,464.2
			C253.6,463.5,254.6,463.1,254,464.2z"/>
		<path fill-rule="evenodd" clip-rule="evenodd" d="M283.2,257.8c-0.9-2.2-0.3-3.1,1.6-1.2C284.2,257,283.7,257.4,283.2,257.8
			C282.9,257.1,283.9,257.3,283.2,257.8z"/>
		<path fill-rule="evenodd" clip-rule="evenodd" d="M173.7,374.4c-0.9,0.1-1.5-0.2-2-0.9c1.1-0.4,2.1-0.1,3.3-0.1
			C174.6,373.7,174.2,374.1,173.7,374.4C173,374.3,174,374.2,173.7,374.4z"/>
		<path fill-rule="evenodd" clip-rule="evenodd" d="M237.3,374.2c-0.9,1-1.7,1-2.2-0.1C235.9,373,236.6,373,237.3,374.2
			C236.7,374.6,236.8,373.8,237.3,374.2z"/>
		<path fill-rule="evenodd" clip-rule="evenodd" d="M275.5,255.1c-0.6,0.8-1.1,0.8-1.6,0C274.2,254,274.7,254,275.5,255.1
			C275,255.5,275,254.8,275.5,255.1z"/>
		<path fill-rule="evenodd" clip-rule="evenodd" d="M304.3,666.6c-1.1-0.8-1.2-1.4-0.2-1.7C304.9,665.5,305,666.1,304.3,666.6
			C303.9,666.1,304.5,666.3,304.3,666.6z"/>
		<path fill-rule="evenodd" clip-rule="evenodd" d="M290.4,467c-0.4,1.4-0.7,1.4-0.9,0C289.8,465.6,290.1,465.6,290.4,467
			C290.2,467.4,290.2,466.7,290.4,467z"/>
		<path fill-rule="evenodd" clip-rule="evenodd" d="M240.3,624.7c-0.8,0.6-1.4,0.4-1.8-0.6C239.1,623.4,239.7,623.6,240.3,624.7
			C239.8,624.9,239.7,624.2,240.3,624.7z"/>
		<path fill-rule="evenodd" clip-rule="evenodd" d="M206.4,302.7c-0.5,0.9-0.9,1-1.2,0.2C205.6,302.2,206,302.1,206.4,302.7
			C206,303,206.1,302.5,206.4,302.7z"/>
		<path fill-rule="evenodd" clip-rule="evenodd" d="M289.9,443.6C288.9,442.5,290,441.8,289.9,443.6
			C289.5,443.3,289.9,443.1,289.9,443.6z"/>
		<path fill-rule="evenodd" clip-rule="evenodd" d="M448.4,400.3C449.3,400.9,448.1,401.6,448.4,400.3
			C448.6,400.4,448.4,400.5,448.4,400.3z"/>
		<path fill-rule="evenodd" clip-rule="evenodd" d="M305.7,667C306.6,667.4,305.2,668.2,305.7,667
			C305.8,667.1,305.6,667.2,305.7,667z"/>
		<path fill-rule="evenodd" clip-rule="evenodd" d="M437.1,590.5C436.4,590,437.8,589.5,437.1,590.5
			C437,590.4,437.2,590.4,437.1,590.5z"/>
		<path fill-rule="evenodd" clip-rule="evenodd" d="M278.4,258.7C277.5,258,279.2,257.7,278.4,258.7
			C278.2,258.5,278.5,258.5,278.4,258.7z"/>
		<path fill-rule="evenodd" clip-rule="evenodd" d="M341.4,390.1C340.7,389.2,341.9,389,341.4,390.1
			C341.2,389.8,341.5,389.8,341.4,390.1z"/>
		<path fill-rule="evenodd" clip-rule="evenodd" d="M276.9,261.4C276.3,260.9,277.1,260.7,276.9,261.4
			C276.8,261.3,277,261.2,276.9,261.4z"/>
		<path fill-rule="evenodd" clip-rule="evenodd" d="M280.2,257.3C279.8,258.2,279.4,256.9,280.2,257.3
			C280.1,257.4,280.1,257.3,280.2,257.3z"/>
		<path fill-rule="evenodd" clip-rule="evenodd" d="M250,468C248.9,468.4,249.7,467.4,250,468C249.8,468.1,249.9,467.9,250,468z"/>
		<path fill-rule="evenodd" clip-rule="evenodd" d="M289.8,434.9C289.2,435.6,289.2,434.3,289.8,434.9
			C289.7,435,289.7,434.8,289.8,434.9z"/>
		<path fill-rule="evenodd" clip-rule="evenodd" d="M312.2,670.5C313,671,311.7,671.3,312.2,670.5
			C312.3,670.6,312.1,670.6,312.2,670.5z"/>
		<path fill-rule="evenodd" clip-rule="evenodd" d="M355.1,378.9C354.5,379.7,354.3,378.1,355.1,378.9
			C355,379,355,378.8,355.1,378.9z"/>
		<path fill-rule="evenodd" clip-rule="evenodd" d="M340.7,405.5C339.9,405.5,340.7,405.1,340.7,405.5
			C340.6,405.5,340.7,405.5,340.7,405.5z"/>
		<path fill-rule="evenodd" clip-rule="evenodd" d="M282.5,413C282.2,413.7,281.8,412.8,282.5,413C282.4,413.2,282.4,413,282.5,413z
			"/>
		<path fill-rule="evenodd" clip-rule="evenodd" d="M288.1,415.7C288.3,416.3,287.7,416.2,288.1,415.7
			C288.2,415.8,288.1,415.8,288.1,415.7z"/>
		<path fill-rule="evenodd" clip-rule="evenodd" d="M399.2,369.4C398.7,369.7,399,368.8,399.2,369.4
			C399.1,369.5,399.2,369.4,399.2,369.4z"/>
		<path fill-rule="evenodd" clip-rule="evenodd" d="M303,662.9C302.6,663.6,302.7,662.6,303,662.9C303,663,303,662.9,303,662.9z"/>
		<path fill-rule="evenodd" clip-rule="evenodd" d="M338.1,674.6C337.9,674.5,337.9,674.5,338.1,674.6L338.1,674.6z"/>
		<path fill-rule="evenodd" clip-rule="evenodd" d="M301.3,255.6C301.1,255.5,301.1,255.5,301.3,255.6L301.3,255.6z"/>
		<path fill-rule="evenodd" clip-rule="evenodd" d="M289.8,463.4C289.8,463.1,290.2,462.9,289.8,463.4
			C289.8,463.3,289.9,463.3,289.8,463.4z"/>
		<path fill-rule="evenodd" clip-rule="evenodd" d="M230.2,372.5C230.1,372.8,229.9,372.3,230.2,372.5
			C230.2,372.5,230.2,372.5,230.2,372.5z"/>
		<path fill-rule="evenodd" clip-rule="evenodd" d="M237.1,370.9C237,371.1,237,371.1,237.1,370.9L237.1,370.9z"/>
		<path fill-rule="evenodd" clip-rule="evenodd" d="M179.1,372.9C179.6,373.3,179.7,373.5,179.1,372.9
			C179.3,373,179.1,372.9,179.1,372.9z"/>
		<path fill-rule="evenodd" clip-rule="evenodd" d="M309.2,670.1C308.8,669.8,309.8,669.9,309.2,670.1
			C309.2,670.1,309.3,670.1,309.2,670.1z"/>
		<path fill-rule="evenodd" clip-rule="evenodd" d="M177.6,372.9C177.4,373.3,177.2,373.4,177.6,372.9
			C177.6,373,177.6,372.9,177.6,372.9z"/>
		<path fill-rule="evenodd" clip-rule="evenodd" d="M244.6,395.1C244.7,394.8,245.1,394.8,244.6,395.1
			C244.7,395,244.7,395,244.6,395.1z"/>
		<path fill-rule="evenodd" clip-rule="evenodd" d="M365.5,630.7c0.1,0,0.2,0,0.4-0.1C365.7,630.8,365.6,630.8,365.5,630.7z"/>
		<path fill-rule="evenodd" clip-rule="evenodd" d="M177.6,372.9c0.7-0.4,1.2-0.4,1.5,0C177.7,373.2,177.2,373.2,177.6,372.9z"/>
		<path fill-rule="evenodd" clip-rule="evenodd" d="M426.3,616.9C425.6,617.1,426.3,616.9,426.3,616.9
			C426.2,616.9,426.3,616.9,426.3,616.9z"/>
		<path fill-rule="evenodd" clip-rule="evenodd" d="M461.6,152.4c-0.6,1-1.1,1-1.5-0.2C460.6,151,461.1,151.1,461.6,152.4
			C461.3,152.7,461.3,152,461.6,152.4z"/>
		<path fill-rule="evenodd" clip-rule="evenodd" d="M145.7,235.1C146.6,236,145.3,236.4,145.7,235.1
			C145.9,235.3,145.6,235.4,145.7,235.1z"/>
		<path fill-rule="evenodd" clip-rule="evenodd" d="M500.4,208.5C499.6,209.1,499.4,207.4,500.4,208.5
			C500.3,208.6,500.3,208.3,500.4,208.5z"/>
		<path fill-rule="evenodd" clip-rule="evenodd" d="M468,253.6c-1.2-1.6-1.7-3.3-1.6-5.2C468.8,249.7,470.1,251.4,468,253.6z"/>
		<path fill-rule="evenodd" clip-rule="evenodd" d="M475.5,251.8c-1.2,1.7-1.9-2-2.1-2.7C474.7,248.7,475.4,249.6,475.5,251.8
			C475.3,252.1,475,250.9,475.5,251.8z"/>
		<path fill-rule="evenodd" clip-rule="evenodd" d="M459.8,235.2c1,0.8,1.2,1.4,0.4,2C459.1,236.7,459,236,459.8,235.2
			C460.2,235.9,459.5,235.9,459.8,235.2z"/>
		<path fill-rule="evenodd" clip-rule="evenodd" d="M470.7,241.3C470.5,241.2,470.8,241,470.7,241.3
			C470.7,241.3,470.8,241.3,470.7,241.3z"/>
		<path fill-rule="evenodd" clip-rule="evenodd" d="M77.8,534.7C77.7,534.8,77.7,534.8,77.8,534.7L77.8,534.7z"/>
		<path fill-rule="evenodd" clip-rule="evenodd" d="M482.8,312.8c-2.6,1.6-3.5,1-1.5-1.5C481.8,311.8,482.3,312.3,482.8,312.8
			C481.9,313.4,482.1,312.2,482.8,312.8z"/>
		<path fill-rule="evenodd" clip-rule="evenodd" d="M443.6,268.5c-0.6,1.5-1,1.6-1.2,0.1C442.8,266.9,443.2,266.9,443.6,268.5
			C443.4,268.9,443.4,268,443.6,268.5z"/>
		<path fill-rule="evenodd" clip-rule="evenodd" d="M470.5,278.3C470.1,279.2,469.5,277.5,470.5,278.3
			C470.4,278.5,470.4,278.2,470.5,278.3z"/>
		<path fill-rule="evenodd" clip-rule="evenodd" d="M366.5,200.3C366,200.7,366,200,366.5,200.3
			C366.5,200.4,366.4,200.2,366.5,200.3z"/>
		<path fill-rule="evenodd" clip-rule="evenodd" d="M350.4,191.2C349.9,191.4,349.9,190.5,350.4,191.2
			C350.3,191.2,350.3,191.1,350.4,191.2z"/>
		<path fill-rule="evenodd" clip-rule="evenodd" d="M483.1,502.8C482.7,502,483,502.5,483.1,502.8
			C483,502.7,483.1,502.8,483.1,502.8z"/>
		<path fill-rule="evenodd" clip-rule="evenodd" d="M483.1,502.8c0.1,0,0.3,0,0.4,0C483.3,502.9,483.2,502.9,483.1,502.8z"/>
		<path fill-rule="evenodd" clip-rule="evenodd" d="M200.6,263.3c0.1,2.7-7,12.6-9.1,13.2c0.3-1,8.3-14.5,7.9-14.7
			C200.4,261.9,200.8,262.4,200.6,263.3C200.7,265.9,200.6,263.4,200.6,263.3z"/>
		<path fill-rule="evenodd" clip-rule="evenodd" d="M184.2,290.8c0.5,1.2-1.8,7.1-3.6,6.2C178.4,295.8,183.6,291.4,184.2,290.8
			C184.5,291.3,183.1,292,184.2,290.8z"/>
		<path fill-rule="evenodd" clip-rule="evenodd" d="M203.1,256.9C200.6,266,199.2,255.9,203.1,256.9
			C202.8,258.1,203,256.9,203.1,256.9z"/>
		<path fill-rule="evenodd" clip-rule="evenodd" d="M190.6,278.1c0.4,1.6-0.7,2.8-1.4,4.2C188.6,280.7,188.4,278.7,190.6,278.1
			C190.6,278.4,188.9,278.6,190.6,278.1z"/>
		<path fill-rule="evenodd" clip-rule="evenodd" d="M161.2,325.6c-0.5-1.4-0.3-2.6,0.6-3.7C164,323.6,162.4,323.9,161.2,325.6z"/>
		<path fill-rule="evenodd" clip-rule="evenodd" d="M186.8,285.2c1.1,0.7,1.1,1.5,0,2.3C185.9,287,185.9,286.2,186.8,285.2
			C187.3,285.8,186.6,286.1,186.8,285.2z"/>
		<path fill-rule="evenodd" clip-rule="evenodd" d="M204,254c1.2,0.7,1.2,1.2,0.1,1.5C203.2,255,203.1,254.5,204,254
			C204.4,254.5,203.7,254.3,204,254z"/>
		<path fill-rule="evenodd" clip-rule="evenodd" d="M210.7,243.1c0.5,0.5,0.5,1.1-0.1,1.5C209.9,244.3,210,243.8,210.7,243.1
			C210.9,243.6,210.4,243.8,210.7,243.1z"/>
		<path fill-rule="evenodd" clip-rule="evenodd" d="M162.6,279.3C162.1,278.2,164.4,278,162.6,279.3C162.5,279,163,279,162.6,279.3z
			"/>
		<path fill-rule="evenodd" clip-rule="evenodd" d="M151.6,357.6C152.1,356.5,152.6,356.7,151.6,357.6
			C151.7,357.4,151.6,357.6,151.6,357.6z"/>
		<path fill-rule="evenodd" clip-rule="evenodd" d="M158.8,285.8C157.4,286.7,157.8,285,158.8,285.8
			C158.5,286,158.5,285.5,158.8,285.8z"/>
		<path fill-rule="evenodd" clip-rule="evenodd" d="M173.1,299.6C173.2,299.9,172.9,300.2,173.1,299.6
			C173.1,299.7,173,299.8,173.1,299.6z"/>
		<path fill-rule="evenodd" clip-rule="evenodd" d="M207.2,251.1C206.3,251.6,207,250.1,207.2,251.1
			C207.1,251.2,207.2,251,207.2,251.1z"/>
		<path fill-rule="evenodd" clip-rule="evenodd" d="M163.1,321.2C163.3,320.9,163.6,321.8,163.1,321.2
			C163.1,321.2,163.2,321.3,163.1,321.2z"/>
		<path fill-rule="evenodd" clip-rule="evenodd" d="M152.6,355C152.6,355.6,152.1,354.8,152.6,355C152.6,355.1,152.6,355,152.6,355z
			"/>
		<path fill-rule="evenodd" clip-rule="evenodd" d="M168.8,311.6C168.7,311.9,168.4,311.4,168.8,311.6
			C168.8,311.6,168.8,311.5,168.8,311.6z"/>
		<path fill-rule="evenodd" clip-rule="evenodd" d="M154.4,336.1C154.3,336.2,154.3,336.2,154.4,336.1L154.4,336.1z"/>
		<path fill-rule="evenodd" clip-rule="evenodd" d="M198.8,237.2C198.8,237.1,198.9,237.1,198.8,237.2L198.8,237.2z"/>
		<path fill-rule="evenodd" clip-rule="evenodd" d="M152.2,353.8C152.9,353.3,152.4,353.7,152.2,353.8
			C152.3,353.7,152.2,353.8,152.2,353.8z"/>
		<path fill-rule="evenodd" clip-rule="evenodd" d="M465.9,627.7c-1.3-0.6-1.4-1.2-0.3-1.7C466.6,626.3,466.7,626.9,465.9,627.7
			C465.3,627,466.2,627.2,465.9,627.7z"/>
		<path fill-rule="evenodd" clip-rule="evenodd" d="M524.4,614.6C523.1,615.1,523.5,613.5,524.4,614.6
			C524.1,614.7,524.2,614.3,524.4,614.6z"/>
		<path fill-rule="evenodd" clip-rule="evenodd" d="M522.5,616.3C522.2,616.6,522,615.7,522.5,616.3
			C522.5,616.4,522.5,616.3,522.5,616.3z"/>
		<path fill-rule="evenodd" clip-rule="evenodd" d="M526.8,611.9C526.8,612.1,526.8,612.1,526.8,611.9L526.8,611.9z"/>
		<path fill-rule="evenodd" clip-rule="evenodd" d="M59.1,557.6c-4.1-1.8-1-18.4,1-17.8C61.3,540.2,59.2,555.8,59.1,557.6z"/>
		<path fill-rule="evenodd" clip-rule="evenodd" d="M64.4,527.4c1.2,2.6-1.4,8.2-3.4,10C60.6,532.6,61.6,531.5,64.4,527.4
			C65.1,528.9,63.3,529,64.4,527.4z"/>
		<path fill-rule="evenodd" clip-rule="evenodd" d="M127.7,495.7c-1.2,1.7-3,2.2-5.2,1.5C122.4,496,126.7,495.7,127.7,495.7z"/>
		<path fill-rule="evenodd" clip-rule="evenodd" d="M67.9,525.6c-0.5,0.6-1,1.1-1.4,1.7C65.5,526,66.4,524.7,67.9,525.6
			C67.4,526.3,67.4,525.3,67.9,525.6z"/>
		<path fill-rule="evenodd" clip-rule="evenodd" d="M131,495.3C131.9,496.1,129.7,496.2,131,495.3
			C131.1,495.4,130.7,495.5,131,495.3z"/>
		<path fill-rule="evenodd" clip-rule="evenodd" d="M127.7,495.7c0.2,0,0.4,0,0.6,0.1C127.7,495.6,127.5,495.6,127.7,495.7z"/>
		<path fill-rule="evenodd" clip-rule="evenodd" d="M383.6,244c-0.6,0.2-1.1,0.5-1.7,0.7C381.6,243.3,382.8,242.9,383.6,244
			C382.9,244.2,383.3,243.6,383.6,244z"/>
		<path fill-rule="evenodd" clip-rule="evenodd" d="M382.1,241.2C380.6,242.3,381.7,240.1,382.1,241.2
			C381.9,241.3,382,241,382.1,241.2z"/>
		<path fill-rule="evenodd" clip-rule="evenodd" d="M153.7,514.3C153.8,514.1,154.2,514.1,153.7,514.3
			C153.8,514.2,153.8,514.3,153.7,514.3z"/>
		<path fill-rule="evenodd" clip-rule="evenodd" d="M125.5,262.7C125.4,262.8,125.4,262.8,125.5,262.7L125.5,262.7z"/>
		<path fill-rule="evenodd" clip-rule="evenodd" d="M131.6,367c-1-0.5-1.2-1.2-0.5-2C132,365.6,132.2,366.2,131.6,367
			C131.1,366.5,131.7,366.5,131.6,367z"/>
		<path fill-rule="evenodd" clip-rule="evenodd" fill="#FFFFFF" d="M258,629.9c5.6,2.8,6.1,4.1,6.8,9.9
			C262.8,639.8,255.1,631.2,258,629.9C260.2,631,257.6,630.1,258,629.9z"/>
		<path fill-rule="evenodd" clip-rule="evenodd" fill="#FFFFFF" d="M350.3,621.4c-2.2-0.4-1.6,0.1-2-3.2c0.9,0,4-0.1,4.7,0.5
			c1.5,1.4,3,2.9,4.5,4.4c1.2,1.2-4.4,2.7-5.1,2.1C350.6,623.6,354.6,620.8,350.3,621.4C349.8,621.3,352.4,621.1,350.3,621.4z"/>
		<path fill-rule="evenodd" clip-rule="evenodd" fill="#FFFFFF" d="M334.3,616.1c0.2-2.1-0.4-6.4,1.6-7.9c0.1-0.1,2.4-1.7,2.6-0.3
			C338.9,609.8,337.1,620,334.3,616.1C334.6,613.5,334.4,616.2,334.3,616.1z"/>
		<path fill-rule="evenodd" clip-rule="evenodd" fill="#FFFFFF" d="M317.4,624.7c-0.2,0.6-0.5,1.2-0.7,1.8c-0.6-1.9-1.5-3.6-0.5-5.5
			C317.4,621.9,317.8,623.1,317.4,624.7C317.3,625.1,317.3,623.5,317.4,624.7z"/>
		<path fill-rule="evenodd" clip-rule="evenodd" fill="#FFFFFF" d="M316.9,633.6c0.5-0.8,1-1.6,1.5-2.4c1.3,1.4,1.2,2.6-0.3,3.6
			C317.7,634.4,317.3,634,316.9,633.6C317.5,632.7,317.4,634.1,316.9,633.6z"/>
		<path fill-rule="evenodd" clip-rule="evenodd" fill="#FFFFFF" d="M300.5,622.6c-1.7,2.1-1.7-0.3-0.9-1.4
			C299.9,621.7,300.2,622.2,300.5,622.6C300.1,623.1,300.2,622.1,300.5,622.6z"/>
		<path fill-rule="evenodd" clip-rule="evenodd" fill="#FFFFFF" d="M295.8,631.2c-1.5-2.2-1.5-3.3-0.1-3.4
			C297.3,630,297.3,631.1,295.8,631.2C295.6,630.2,296,631.2,295.8,631.2z"/>
		<path fill-rule="evenodd" clip-rule="evenodd" fill="#FFFFFF" d="M287.9,628.1c-0.6,0.9-0.9,0.7-1-0.3
			C287.2,626.8,287.5,626.9,287.9,628.1C287.6,628.3,287.6,627.7,287.9,628.1z"/>
		<path fill-rule="evenodd" clip-rule="evenodd" fill="#FFFFFF" d="M300,643.4C299.5,644.2,299.1,642.9,300,643.4
			C299.9,643.5,299.9,643.3,300,643.4z"/>
		<path fill-rule="evenodd" clip-rule="evenodd" fill="#FFFFFF" d="M316.7,617.6C316,618.3,316,616.8,316.7,617.6
			C316.6,617.7,316.6,617.5,316.7,617.6z"/>
		<path fill-rule="evenodd" clip-rule="evenodd" fill="#FFFFFF" d="M322.8,618.3C321.9,619.2,321.7,617.7,322.8,618.3
			C322.6,618.5,322.5,618.2,322.8,618.3z"/>
		<path fill-rule="evenodd" clip-rule="evenodd" fill="#FFFFFF" d="M324.5,623.2C324.3,623.5,324,622.7,324.5,623.2
			C324.5,623.3,324.5,623.2,324.5,623.2z"/>
		<path fill-rule="evenodd" clip-rule="evenodd" fill="#FFFFFF" d="M350.6,625.4C351,625.9,350.1,626.1,350.6,625.4
			C350.7,625.5,350.5,625.5,350.6,625.4z"/>
		<path fill-rule="evenodd" clip-rule="evenodd" fill="#FFFFFF" d="M342.3,626.4C341.9,626.6,342.2,626,342.3,626.4
			C342.2,626.5,342.3,626.4,342.3,626.4z"/>
		<path fill-rule="evenodd" clip-rule="evenodd" fill="#FFFFFF" d="M322.2,616.3C322,616.3,322,616.3,322.2,616.3L322.2,616.3z"/>
		<path fill-rule="evenodd" clip-rule="evenodd" fill="#FFFFFF" d="M408.7,466c-7.9,2.5-12.5-2.2-3.5-6.9c0.1,2.3-1.4,4-1.2,6.4
			c11.2-1.2,4.6-18.2,4.6-24.4c3.5,0.3,13.8,4.3,9.4,10.1c-2.1,2.8,0.7,5.8-3.2,8.5C411.1,462.1,412.7,466.2,408.7,466
			C408.5,466.1,411.8,466.2,408.7,466z"/>
		<path fill-rule="evenodd" clip-rule="evenodd" fill="#FFFFFF" d="M408.3,433.3c-2.6,0.4-3.9-0.3-3.8-2.3c1.2-1.1,9.3-2.6,8.3,1.1
			C411.5,433.1,410,433.5,408.3,433.3C407.4,433,409.7,433.1,408.3,433.3z"/>
		<path fill-rule="evenodd" clip-rule="evenodd" fill="#FFFFFF" d="M382.8,473.3c2.9-0.1,3.6,2.5,5,4.6
			C385.3,478.1,379.5,475.9,382.8,473.3C385.1,473.2,382.6,473.4,382.8,473.3z"/>
		<path fill-rule="evenodd" clip-rule="evenodd" fill="#FFFFFF" d="M404.9,425.3c-3.3,0.3-7.4,1.4-10.7,0.6
			C395.6,425,404.8,422.5,404.9,425.3C401.8,425.6,404.9,425.2,404.9,425.3z"/>
		<path fill-rule="evenodd" clip-rule="evenodd" fill="#FFFFFF" d="M378.3,477.2c-2.1,0.3-5.1-1-6.5-2.7
			C373.7,472.9,377.6,474.8,378.3,477.2C377.8,477.2,378.1,476.7,378.3,477.2z"/>
		<path fill-rule="evenodd" clip-rule="evenodd" fill="#FFFFFF" d="M392.9,477.4c0.3,0.7,0.2,2.1-1,0.8
			C391.9,477.5,392.3,477.2,392.9,477.4C393.1,477.7,392.7,477.4,392.9,477.4z"/>
		<path fill-rule="evenodd" clip-rule="evenodd" fill="#FFFFFF" d="M397.8,431.2C397.4,431.4,397.6,430.7,397.8,431.2
			C397.7,431.2,397.8,431.1,397.8,431.2z"/>
		<path fill-rule="evenodd" clip-rule="evenodd" fill="#FFFFFF" d="M224.3,471c-7.1-1.4-14.5-1.3-19.1-7.7c-2.4-3.3-7.3-15.1,0-17.1
			c8.6-2.3,5.7,6.3,9,12.5C215.2,460.6,224.7,469.9,224.3,471C221.6,470.5,224.3,470.9,224.3,471z"/>
		<path fill-rule="evenodd" clip-rule="evenodd" fill="#FFFFFF" d="M235.9,476.4c3.3,0,6.8-0.4,9.9,0.7
			C244.4,478.3,235.6,479.5,235.9,476.4C237.6,476.4,235.9,476.6,235.9,476.4z"/>
		<path fill-rule="evenodd" clip-rule="evenodd" fill="#FFFFFF" d="M311,570.3c-3.1,0-6.2,0.3-8.2-2.6c-1.1-1.6-2.4-4.7,0.8-4.3
			c8,1.1,12.7,0.3,20.3-1.8C323.7,568.2,317.1,570.8,311,570.3C309.8,570.3,315,570.6,311,570.3z"/>
		<path fill-rule="evenodd" clip-rule="evenodd" fill="#FFFFFF" d="M315.4,576.5c5-1.9,8.8-4.1,13.3-6.5
			C329.4,576.1,319.1,575.9,315.4,576.5C318.8,575.2,318.3,576.1,315.4,576.5z"/>
		<path fill-rule="evenodd" clip-rule="evenodd" fill="#FFFFFF" d="M287.5,557.9c-7.2,0.9-3.8-3.5-3.5-3.5
			C292,555.7,286.9,557,287.5,557.9C286.4,558,287.6,558,287.5,557.9z"/>
		<path fill-rule="evenodd" clip-rule="evenodd" fill="#FFFFFF" d="M302.1,574.6c1,0.3,5.7,1.1,6.5,2
			C307.4,577.6,300,575.1,302.1,574.6C304.4,575.2,302.1,574.6,302.1,574.6z"/>
		<path fill-rule="evenodd" clip-rule="evenodd" fill="#FFFFFF" d="M340.6,554.7c-0.9,1-1.7,1.2-2.4,0.5
			C339,554.1,339.8,553.9,340.6,554.7C339.8,555.1,340.1,554.4,340.6,554.7z"/>
		<path fill-rule="evenodd" clip-rule="evenodd" fill="#FFFFFF" d="M294.9,565.5c-0.7,0.3-1.1-0.1-1.1-1.1
			C294.5,564,294.8,564.3,294.9,565.5C294.6,565.5,294.6,565,294.9,565.5z"/>
		<path fill-rule="evenodd" clip-rule="evenodd" fill="#FFFFFF" d="M312.4,576.8C312.4,576.5,312.8,576.8,312.4,576.8
			C312.4,576.8,312.4,576.8,312.4,576.8z"/>
		<path fill-rule="evenodd" clip-rule="evenodd" fill="#FFFFFF" d="M296.5,569.3C296.5,569.5,296.5,569.5,296.5,569.3L296.5,569.3z"
			/>
		<path fill-rule="evenodd" clip-rule="evenodd" fill="#FFFFFF" d="M281.6,554C281.7,554.3,281.4,554.5,281.6,554
			C281.6,554.1,281.5,554.1,281.6,554z"/>
		<path fill-rule="evenodd" clip-rule="evenodd" fill="#FFFFFF" d="M357.8,385.3c0,0.9-0.4,1.7-1.1,2.3
			C355.8,386,357.1,383,357.8,385.3C357.7,385.6,357.7,385,357.8,385.3z"/>
		<path fill-rule="evenodd" clip-rule="evenodd" fill="#FFFFFF" d="M363.1,382.9C362.1,383.8,362.4,382.1,363.1,382.9
			C363,383,363,382.7,363.1,382.9z"/>
		<path fill-rule="evenodd" clip-rule="evenodd" fill="#FFFFFF" d="M373.4,377.6C372.7,377.7,373.2,377,373.4,377.6
			C373.3,377.6,373.3,377.5,373.4,377.6z"/>
	</g>
</g>
</svg>
